<?xml version="1.0" encoding="UTF-8" standalone="no"?><svg xmlns="http://www.w3.org/2000/svg" xmlns:xlink="http://www.w3.org/1999/xlink" contentScriptType="application/ecmascript" contentStyleType="text/css" height="988px" preserveAspectRatio="none" style="width:1824px;height:988px;" version="1.1" viewBox="0 0 1824 988" width="1824px" zoomAndPan="magnify"><defs><filter height="300%" id="fxe1ldix2eka" width="300%" x="-1" y="-1"><feGaussianBlur result="blurOut" stdDeviation="2.0"/><feColorMatrix in="blurOut" result="blurOut2" type="matrix" values="0 0 0 0 0 0 0 0 0 0 0 0 0 0 0 0 0 0 .4 0"/><feOffset dx="4.0" dy="4.0" in="blurOut2" result="blurOut3"/><feBlend in="SourceGraphic" in2="blurOut3" mode="normal"/></filter></defs><g><!--MD5=[2f53bb4e671dfc9774fd9dd7ec7e9388]
class BaseTopic--><rect fill="#FEFECE" filter="url(#fxe1ldix2eka)" height="86.8652" id="BaseTopic" style="stroke: #A80036; stroke-width: 1.5;" width="217" x="675.71" y="7"/><ellipse cx="750.46" cy="23" fill="#ADD1B2" rx="11" ry="11" style="stroke: #A80036; stroke-width: 1.0;"/><path d="M752.9331,29.1431 Q752.3521,29.4419 751.7129,29.5913 Q751.0738,29.7407 750.3682,29.7407 Q747.8614,29.7407 746.5415,28.0889 Q745.2217,26.437 745.2217,23.3159 Q745.2217,20.1865 746.5415,18.5347 Q747.8614,16.8828 750.3682,16.8828 Q751.0738,16.8828 751.7212,17.0322 Q752.3687,17.1816 752.9331,17.4805 L752.9331,20.2031 Q752.3023,19.6221 751.7088,19.3523 Q751.1153,19.0825 750.4844,19.0825 Q749.1397,19.0825 748.4549,20.1492 Q747.7701,21.2158 747.7701,23.3159 Q747.7701,25.4077 748.4549,26.4744 Q749.1397,27.541 750.4844,27.541 Q751.1153,27.541 751.7088,27.2712 Q752.3023,27.0015 752.9331,26.4204 Z "/><text fill="#000000" font-family="sans-serif" font-size="12" lengthAdjust="spacingAndGlyphs" textLength="59" x="770.96" y="27.5352">BaseTopic</text><line style="stroke: #A80036; stroke-width: 1.5;" x1="676.71" x2="891.71" y1="39" y2="39"/><text fill="#000000" font-family="sans-serif" font-size="11" lengthAdjust="spacingAndGlyphs" textLength="28" x="681.71" y="53.6348">rId id</text><text fill="#000000" font-family="sans-serif" font-size="11" lengthAdjust="spacingAndGlyphs" textLength="60" x="681.71" y="66.5898">gId realmId</text><line style="stroke: #A80036; stroke-width: 1.5;" x1="676.71" x2="891.71" y1="72.9102" y2="72.9102"/><text fill="#000000" font-family="sans-serif" font-size="11" lengthAdjust="spacingAndGlyphs" textLength="205" x="681.71" y="87.5449">Relation[] inRelations(role, assocType)</text><!--MD5=[9d451b2f92d848a8e2d1a4dab2b1c6bf]
class Concept--><rect fill="#FEFECE" filter="url(#fxe1ldix2eka)" height="138.6855" id="Concept" style="stroke: #A80036; stroke-width: 1.5;" width="267" x="650.71" y="155"/><ellipse cx="756.46" cy="171" fill="#ADD1B2" rx="11" ry="11" style="stroke: #A80036; stroke-width: 1.0;"/><path d="M758.9331,177.1431 Q758.3521,177.4419 757.7129,177.5913 Q757.0738,177.7407 756.3682,177.7407 Q753.8614,177.7407 752.5415,176.0889 Q751.2217,174.437 751.2217,171.3159 Q751.2217,168.1865 752.5415,166.5347 Q753.8614,164.8828 756.3682,164.8828 Q757.0738,164.8828 757.7212,165.0322 Q758.3687,165.1816 758.9331,165.4805 L758.9331,168.2031 Q758.3023,167.6221 757.7088,167.3523 Q757.1153,167.0825 756.4844,167.0825 Q755.1397,167.0825 754.4549,168.1492 Q753.7701,169.2158 753.7701,171.3159 Q753.7701,173.4077 754.4549,174.4744 Q755.1397,175.541 756.4844,175.541 Q757.1153,175.541 757.7088,175.2712 Q758.3023,175.0015 758.9331,174.4204 Z "/><text fill="#000000" font-family="sans-serif" font-size="12" lengthAdjust="spacingAndGlyphs" textLength="47" x="776.96" y="175.5352">Concept</text><line style="stroke: #A80036; stroke-width: 1.5;" x1="651.71" x2="916.71" y1="187" y2="187"/><text fill="#000000" font-family="sans-serif" font-size="11" lengthAdjust="spacingAndGlyphs" textLength="242" x="656.71" y="201.6348">Map&lt;realmId,conceptId&gt; externalReferences</text><text fill="#000000" font-family="sans-serif" font-size="11" lengthAdjust="spacingAndGlyphs" textLength="255" x="656.71" y="214.5898">Map&lt;conceptId,Attribute&gt; functionalAttributes</text><text fill="#000000" font-family="sans-serif" font-size="11" lengthAdjust="spacingAndGlyphs" textLength="225" x="656.71" y="227.5449">Map&lt;conceptId,Attribute[]&gt; setAttributes</text><text fill="#000000" font-family="sans-serif" font-size="11" lengthAdjust="spacingAndGlyphs" textLength="136" x="656.71" y="240.5">Set&lt;MetaConcept&gt; types</text><line style="stroke: #A80036; stroke-width: 1.5;" x1="651.71" x2="916.71" y1="246.8203" y2="246.8203"/><text fill="#000000" font-family="sans-serif" font-size="11" lengthAdjust="spacingAndGlyphs" textLength="118" x="656.71" y="261.4551">MetaConcept[] types()</text><text fill="#000000" font-family="sans-serif" font-size="11" lengthAdjust="spacingAndGlyphs" textLength="139" x="656.71" y="274.4102">SplitEvents[] splitHistory()</text><text fill="#000000" font-family="sans-serif" font-size="11" lengthAdjust="spacingAndGlyphs" textLength="143" x="656.71" y="287.3652">Collection[] inCollections()</text><!--MD5=[f9b6bf8399e7be1227768c58e8460ec6]
class SingleTypeTopic--><rect fill="#FEFECE" filter="url(#fxe1ldix2eka)" height="73.9102" id="SingleTypeTopic" style="stroke: #A80036; stroke-width: 1.5;" width="126" x="459.21" y="187.5"/><ellipse cx="474.21" cy="203.5" fill="#ADD1B2" rx="11" ry="11" style="stroke: #A80036; stroke-width: 1.0;"/><path d="M476.6831,209.6431 Q476.1021,209.9419 475.4629,210.0913 Q474.8238,210.2407 474.1182,210.2407 Q471.6114,210.2407 470.2915,208.5889 Q468.9717,206.937 468.9717,203.8159 Q468.9717,200.6865 470.2915,199.0347 Q471.6114,197.3828 474.1182,197.3828 Q474.8238,197.3828 475.4712,197.5322 Q476.1187,197.6816 476.6831,197.9805 L476.6831,200.7031 Q476.0523,200.1221 475.4588,199.8523 Q474.8653,199.5825 474.2344,199.5825 Q472.8897,199.5825 472.2049,200.6492 Q471.5201,201.7158 471.5201,203.8159 Q471.5201,205.9077 472.2049,206.9744 Q472.8897,208.041 474.2344,208.041 Q474.8653,208.041 475.4588,207.7712 Q476.0523,207.5015 476.6831,206.9204 Z "/><text fill="#000000" font-family="sans-serif" font-size="12" lengthAdjust="spacingAndGlyphs" textLength="94" x="488.21" y="208.0352">SingleTypeTopic</text><line style="stroke: #A80036; stroke-width: 1.5;" x1="460.21" x2="584.21" y1="219.5" y2="219.5"/><text fill="#000000" font-family="sans-serif" font-size="11" lengthAdjust="spacingAndGlyphs" textLength="51" x="465.21" y="234.1348">rId typeId</text><text fill="#000000" font-family="sans-serif" font-size="11" lengthAdjust="spacingAndGlyphs" textLength="85" x="465.21" y="247.0898">gId typeRealmId</text><line style="stroke: #A80036; stroke-width: 1.5;" x1="460.21" x2="584.21" y1="253.4102" y2="253.4102"/><!--MD5=[cab36c756e3eb0c996298833d4299d66]
class MetaConcept--><rect fill="#FEFECE" filter="url(#fxe1ldix2eka)" height="60.9551" id="MetaConcept" style="stroke: #A80036; stroke-width: 1.5;" width="258" x="89.21" y="384"/><ellipse cx="176.46" cy="400" fill="#ADD1B2" rx="11" ry="11" style="stroke: #A80036; stroke-width: 1.0;"/><path d="M178.9331,406.1431 Q178.3521,406.4419 177.7129,406.5913 Q177.0738,406.7407 176.3682,406.7407 Q173.8614,406.7407 172.5415,405.0889 Q171.2217,403.437 171.2217,400.3159 Q171.2217,397.1865 172.5415,395.5347 Q173.8614,393.8828 176.3682,393.8828 Q177.0738,393.8828 177.7212,394.0322 Q178.3687,394.1816 178.9331,394.4805 L178.9331,397.2031 Q178.3023,396.6221 177.7088,396.3523 Q177.1153,396.0825 176.4844,396.0825 Q175.1397,396.0825 174.4549,397.1492 Q173.7701,398.2158 173.7701,400.3159 Q173.7701,402.4077 174.4549,403.4744 Q175.1397,404.541 176.4844,404.541 Q177.1153,404.541 177.7088,404.2712 Q178.3023,404.0015 178.9331,403.4204 Z "/><text fill="#000000" font-family="sans-serif" font-size="12" lengthAdjust="spacingAndGlyphs" textLength="75" x="196.96" y="404.5352">MetaConcept</text><line style="stroke: #A80036; stroke-width: 1.5;" x1="90.21" x2="346.21" y1="416" y2="416"/><line style="stroke: #A80036; stroke-width: 1.5;" x1="90.21" x2="346.21" y1="424" y2="424"/><text fill="#000000" font-family="sans-serif" font-size="11" lengthAdjust="spacingAndGlyphs" textLength="246" x="95.21" y="438.6348">boolean isSubtypeOf(MetaConcept supertype)</text><!--MD5=[b3e247fa655074b701fdbd85e7d50d9b]
class RoleBinding--><rect fill="#FEFECE" filter="url(#fxe1ldix2eka)" height="99.8203" id="RoleBinding" style="stroke: #A80036; stroke-width: 1.5;" width="107" x="128.71" y="548"/><ellipse cx="147.31" cy="564" fill="#ADD1B2" rx="11" ry="11" style="stroke: #A80036; stroke-width: 1.0;"/><path d="M149.7831,570.1431 Q149.2021,570.4419 148.5629,570.5913 Q147.9238,570.7407 147.2182,570.7407 Q144.7114,570.7407 143.3915,569.0889 Q142.0717,567.437 142.0717,564.3159 Q142.0717,561.1865 143.3915,559.5347 Q144.7114,557.8828 147.2182,557.8828 Q147.9238,557.8828 148.5712,558.0322 Q149.2187,558.1816 149.7831,558.4805 L149.7831,561.2031 Q149.1523,560.6221 148.5588,560.3523 Q147.9653,560.0825 147.3344,560.0825 Q145.9897,560.0825 145.3049,561.1492 Q144.6201,562.2158 144.6201,564.3159 Q144.6201,566.4077 145.3049,567.4744 Q145.9897,568.541 147.3344,568.541 Q147.9653,568.541 148.5588,568.2712 Q149.1523,568.0015 149.7831,567.4204 Z "/><text fill="#000000" font-family="sans-serif" font-size="12" lengthAdjust="spacingAndGlyphs" textLength="67" x="162.11" y="568.5352">RoleBinding</text><line style="stroke: #A80036; stroke-width: 1.5;" x1="129.71" x2="234.71" y1="580" y2="580"/><text fill="#000000" font-family="sans-serif" font-size="11" lengthAdjust="spacingAndGlyphs" textLength="56" x="134.71" y="594.6348">rId actorId</text><text fill="#000000" font-family="sans-serif" font-size="11" lengthAdjust="spacingAndGlyphs" textLength="95" x="134.71" y="607.5898">Realm actorRealm</text><text fill="#000000" font-family="sans-serif" font-size="11" lengthAdjust="spacingAndGlyphs" textLength="49" x="134.71" y="620.5449">rId roleId</text><text fill="#000000" font-family="sans-serif" font-size="11" lengthAdjust="spacingAndGlyphs" textLength="88" x="134.71" y="633.5">Realm roleRealm</text><line style="stroke: #A80036; stroke-width: 1.5;" x1="129.71" x2="234.71" y1="639.8203" y2="639.8203"/><!--MD5=[e374789131e8ca1870007e843d2e8f6e]
class BaseEvent--><rect fill="#FEFECE" filter="url(#fxe1ldix2eka)" height="99.8203" id="BaseEvent" style="stroke: #A80036; stroke-width: 1.5;" width="156" x="1524.21" y="870"/><ellipse cx="1568.96" cy="886" fill="#ADD1B2" rx="11" ry="11" style="stroke: #A80036; stroke-width: 1.0;"/><path d="M1571.4331,892.1431 Q1570.8521,892.4419 1570.2129,892.5913 Q1569.5738,892.7407 1568.8682,892.7407 Q1566.3614,892.7407 1565.0415,891.0889 Q1563.7217,889.437 1563.7217,886.3159 Q1563.7217,883.1865 1565.0415,881.5347 Q1566.3614,879.8828 1568.8682,879.8828 Q1569.5738,879.8828 1570.2212,880.0322 Q1570.8687,880.1816 1571.4331,880.4805 L1571.4331,883.2031 Q1570.8023,882.6221 1570.2088,882.3523 Q1569.6153,882.0825 1568.9844,882.0825 Q1567.6397,882.0825 1566.9549,883.1492 Q1566.2701,884.2158 1566.2701,886.3159 Q1566.2701,888.4077 1566.9549,889.4744 Q1567.6397,890.541 1568.9844,890.541 Q1569.6153,890.541 1570.2088,890.2712 Q1570.8023,890.0015 1571.4331,889.4204 Z "/><text fill="#000000" font-family="sans-serif" font-size="12" lengthAdjust="spacingAndGlyphs" textLength="58" x="1589.46" y="890.5352">BaseEvent</text><line style="stroke: #A80036; stroke-width: 1.5;" x1="1525.21" x2="1679.21" y1="902" y2="902"/><text fill="#000000" font-family="sans-serif" font-size="11" lengthAdjust="spacingAndGlyphs" textLength="144" x="1530.21" y="916.6348">MetaConcept inherentType</text><text fill="#000000" font-family="sans-serif" font-size="11" lengthAdjust="spacingAndGlyphs" textLength="124" x="1530.21" y="929.5898">BaseEvent derivedFrom</text><text fill="#000000" font-family="sans-serif" font-size="11" lengthAdjust="spacingAndGlyphs" textLength="67" x="1530.21" y="942.5449">User creator</text><line style="stroke: #A80036; stroke-width: 1.5;" x1="1525.21" x2="1679.21" y1="948.8652" y2="948.8652"/><text fill="#000000" font-family="sans-serif" font-size="11" lengthAdjust="spacingAndGlyphs" textLength="107" x="1530.21" y="963.5">BaseEvent[] events()</text><!--MD5=[c055a7e8c8eb8baa26cda2b1a113b788]
class SimpleRelation--><rect fill="#FEFECE" filter="url(#fxe1ldix2eka)" height="73.9102" id="SimpleRelation" style="stroke: #A80036; stroke-width: 1.5;" width="116" x="598.21" y="377.5"/><ellipse cx="613.21" cy="393.5" fill="#ADD1B2" rx="11" ry="11" style="stroke: #A80036; stroke-width: 1.0;"/><path d="M615.6831,399.6431 Q615.1021,399.9419 614.4629,400.0913 Q613.8238,400.2407 613.1182,400.2407 Q610.6114,400.2407 609.2915,398.5889 Q607.9717,396.937 607.9717,393.8159 Q607.9717,390.6865 609.2915,389.0347 Q610.6114,387.3828 613.1182,387.3828 Q613.8238,387.3828 614.4712,387.5322 Q615.1187,387.6816 615.6831,387.9805 L615.6831,390.7031 Q615.0523,390.1221 614.4588,389.8523 Q613.8653,389.5825 613.2344,389.5825 Q611.8897,389.5825 611.2049,390.6492 Q610.5201,391.7158 610.5201,393.8159 Q610.5201,395.9077 611.2049,396.9744 Q611.8897,398.041 613.2344,398.041 Q613.8653,398.041 614.4588,397.7712 Q615.0523,397.5015 615.6831,396.9204 Z "/><text fill="#000000" font-family="sans-serif" font-size="12" lengthAdjust="spacingAndGlyphs" textLength="84" x="627.21" y="398.0352">SimpleRelation</text><line style="stroke: #A80036; stroke-width: 1.5;" x1="599.21" x2="713.21" y1="409.5" y2="409.5"/><text fill="#000000" font-family="sans-serif" font-size="11" lengthAdjust="spacingAndGlyphs" textLength="103" x="604.21" y="424.1348">RoleBinding source</text><text fill="#000000" font-family="sans-serif" font-size="11" lengthAdjust="spacingAndGlyphs" textLength="89" x="604.21" y="437.0898">RoleBinding dest</text><line style="stroke: #A80036; stroke-width: 1.5;" x1="599.21" x2="713.21" y1="443.4102" y2="443.4102"/><!--MD5=[787494ff879e99315e413996e631a796]
class Attribute--><rect fill="#FEFECE" filter="url(#fxe1ldix2eka)" height="60.9551" id="Attribute" style="stroke: #A80036; stroke-width: 1.5;" width="82" x="481.21" y="384"/><ellipse cx="496.21" cy="400" fill="#ADD1B2" rx="11" ry="11" style="stroke: #A80036; stroke-width: 1.0;"/><path d="M498.6831,406.1431 Q498.1021,406.4419 497.4629,406.5913 Q496.8238,406.7407 496.1182,406.7407 Q493.6114,406.7407 492.2915,405.0889 Q490.9717,403.437 490.9717,400.3159 Q490.9717,397.1865 492.2915,395.5347 Q493.6114,393.8828 496.1182,393.8828 Q496.8238,393.8828 497.4712,394.0322 Q498.1187,394.1816 498.6831,394.4805 L498.6831,397.2031 Q498.0523,396.6221 497.4588,396.3523 Q496.8653,396.0825 496.2344,396.0825 Q494.8897,396.0825 494.2049,397.1492 Q493.5201,398.2158 493.5201,400.3159 Q493.5201,402.4077 494.2049,403.4744 Q494.8897,404.541 496.2344,404.541 Q496.8653,404.541 497.4588,404.2712 Q498.0523,404.0015 498.6831,403.4204 Z "/><text fill="#000000" font-family="sans-serif" font-size="12" lengthAdjust="spacingAndGlyphs" textLength="50" x="510.21" y="404.5352">Attribute</text><line style="stroke: #A80036; stroke-width: 1.5;" x1="482.21" x2="562.21" y1="416" y2="416"/><text fill="#000000" font-family="sans-serif" font-size="11" lengthAdjust="spacingAndGlyphs" textLength="36" x="487.21" y="430.6348">? value</text><line style="stroke: #A80036; stroke-width: 1.5;" x1="482.21" x2="562.21" y1="436.9551" y2="436.9551"/><!--MD5=[76720713d741c1b729a86cf9a3614322]
class Realm--><rect fill="#FEFECE" filter="url(#fxe1ldix2eka)" height="125.7305" id="Realm" style="stroke: #A80036; stroke-width: 1.5;" width="193" x="1279.71" y="535"/><ellipse cx="1353.96" cy="551" fill="#ADD1B2" rx="11" ry="11" style="stroke: #A80036; stroke-width: 1.0;"/><path d="M1356.4331,557.1431 Q1355.8521,557.4419 1355.2129,557.5913 Q1354.5738,557.7407 1353.8682,557.7407 Q1351.3614,557.7407 1350.0415,556.0889 Q1348.7217,554.437 1348.7217,551.3159 Q1348.7217,548.1865 1350.0415,546.5347 Q1351.3614,544.8828 1353.8682,544.8828 Q1354.5738,544.8828 1355.2212,545.0322 Q1355.8687,545.1816 1356.4331,545.4805 L1356.4331,548.2031 Q1355.8023,547.6221 1355.2088,547.3523 Q1354.6153,547.0825 1353.9844,547.0825 Q1352.6397,547.0825 1351.9549,548.1492 Q1351.2701,549.2158 1351.2701,551.3159 Q1351.2701,553.4077 1351.9549,554.4744 Q1352.6397,555.541 1353.9844,555.541 Q1354.6153,555.541 1355.2088,555.2712 Q1355.8023,555.0015 1356.4331,554.4204 Z "/><text fill="#000000" font-family="sans-serif" font-size="12" lengthAdjust="spacingAndGlyphs" textLength="36" x="1374.46" y="555.5352">Realm</text><line style="stroke: #A80036; stroke-width: 1.5;" x1="1280.71" x2="1471.71" y1="567" y2="567"/><text fill="#000000" font-family="sans-serif" font-size="11" lengthAdjust="spacingAndGlyphs" textLength="75" x="1285.71" y="581.6348">int lastEventId</text><text fill="#000000" font-family="sans-serif" font-size="11" lengthAdjust="spacingAndGlyphs" textLength="158" x="1285.71" y="594.5898">Map&lt;rId, Concept&gt; concepts</text><text fill="#000000" font-family="sans-serif" font-size="11" lengthAdjust="spacingAndGlyphs" textLength="152" x="1285.71" y="607.5449">Map&lt;rId, BaseEvent&gt; events</text><line style="stroke: #A80036; stroke-width: 1.5;" x1="1280.71" x2="1471.71" y1="613.8652" y2="613.8652"/><rect fill="#F24D5C" height="6" style="stroke: #C82930; stroke-width: 1.0;" width="6" x="1287.71" y="621.8652"/><text fill="#000000" font-family="sans-serif" font-size="11" lengthAdjust="spacingAndGlyphs" textLength="167" x="1299.71" y="628.5">Relation[] relationsOfTopic(rId)</text><text fill="#000000" font-family="sans-serif" font-size="11" lengthAdjust="spacingAndGlyphs" textLength="94" x="1299.71" y="641.4551">Concept byId(rId)</text><text fill="#000000" font-family="sans-serif" font-size="11" lengthAdjust="spacingAndGlyphs" textLength="128" x="1299.71" y="654.4102">Concept byName(name)</text><!--MD5=[be487b3bb751466a4a7bf5087ababc69]
class EventStream--><rect fill="#FEFECE" filter="url(#fxe1ldix2eka)" height="48" id="EventStream" style="stroke: #A80036; stroke-width: 1.5;" width="103" x="1498.71" y="741.5"/><ellipse cx="1513.71" cy="757.5" fill="#ADD1B2" rx="11" ry="11" style="stroke: #A80036; stroke-width: 1.0;"/><path d="M1516.1831,763.6431 Q1515.6021,763.9419 1514.9629,764.0913 Q1514.3238,764.2407 1513.6182,764.2407 Q1511.1114,764.2407 1509.7915,762.5889 Q1508.4717,760.937 1508.4717,757.8159 Q1508.4717,754.6865 1509.7915,753.0347 Q1511.1114,751.3828 1513.6182,751.3828 Q1514.3238,751.3828 1514.9712,751.5322 Q1515.6187,751.6816 1516.1831,751.9805 L1516.1831,754.7031 Q1515.5523,754.1221 1514.9588,753.8523 Q1514.3653,753.5825 1513.7344,753.5825 Q1512.3897,753.5825 1511.7049,754.6492 Q1511.0201,755.7158 1511.0201,757.8159 Q1511.0201,759.9077 1511.7049,760.9744 Q1512.3897,762.041 1513.7344,762.041 Q1514.3653,762.041 1514.9588,761.7712 Q1515.5523,761.5015 1516.1831,760.9204 Z "/><text fill="#000000" font-family="sans-serif" font-size="12" lengthAdjust="spacingAndGlyphs" textLength="71" x="1527.71" y="762.0352">EventStream</text><line style="stroke: #A80036; stroke-width: 1.5;" x1="1499.71" x2="1600.71" y1="773.5" y2="773.5"/><line style="stroke: #A80036; stroke-width: 1.5;" x1="1499.71" x2="1600.71" y1="781.5" y2="781.5"/><!--MD5=[bb370c11d182b7ebaea7e6fa83404e81]
class Process--><rect fill="#FEFECE" filter="url(#fxe1ldix2eka)" height="86.8652" id="Process" style="stroke: #A80036; stroke-width: 1.5;" width="177" x="1205.71" y="371"/><ellipse cx="1267.96" cy="387" fill="#ADD1B2" rx="11" ry="11" style="stroke: #A80036; stroke-width: 1.0;"/><path d="M1270.4331,393.1431 Q1269.8521,393.4419 1269.2129,393.5913 Q1268.5738,393.7407 1267.8682,393.7407 Q1265.3614,393.7407 1264.0415,392.0889 Q1262.7217,390.437 1262.7217,387.3159 Q1262.7217,384.1865 1264.0415,382.5347 Q1265.3614,380.8828 1267.8682,380.8828 Q1268.5738,380.8828 1269.2212,381.0322 Q1269.8687,381.1816 1270.4331,381.4805 L1270.4331,384.2031 Q1269.8023,383.6221 1269.2088,383.3523 Q1268.6153,383.0825 1267.9844,383.0825 Q1266.6397,383.0825 1265.9549,384.1492 Q1265.2701,385.2158 1265.2701,387.3159 Q1265.2701,389.4077 1265.9549,390.4744 Q1266.6397,391.541 1267.9844,391.541 Q1268.6153,391.541 1269.2088,391.2712 Q1269.8023,391.0015 1270.4331,390.4204 Z "/><text fill="#000000" font-family="sans-serif" font-size="12" lengthAdjust="spacingAndGlyphs" textLength="44" x="1288.46" y="391.5352">Process</text><line style="stroke: #A80036; stroke-width: 1.5;" x1="1206.71" x2="1381.71" y1="403" y2="403"/><text fill="#000000" font-family="sans-serif" font-size="11" lengthAdjust="spacingAndGlyphs" textLength="87" x="1211.71" y="417.6348">Capability inbox</text><text fill="#000000" font-family="sans-serif" font-size="11" lengthAdjust="spacingAndGlyphs" textLength="80" x="1211.71" y="430.5898">eventSignature</text><line style="stroke: #A80036; stroke-width: 1.5;" x1="1206.71" x2="1381.71" y1="436.9102" y2="436.9102"/><text fill="#000000" font-family="sans-serif" font-size="11" lengthAdjust="spacingAndGlyphs" textLength="165" x="1211.71" y="451.5449">BaseEvent[] expand(BaseEvent)</text><!--MD5=[534474e9f05b14d7c70186ae077f30e0]
class Relation--><rect fill="#FEFECE" filter="url(#fxe1ldix2eka)" height="60.9551" id="Relation" style="stroke: #A80036; stroke-width: 1.5;" width="249" x="749.71" y="384"/><ellipse cx="846.96" cy="400" fill="#ADD1B2" rx="11" ry="11" style="stroke: #A80036; stroke-width: 1.0;"/><path d="M849.4331,406.1431 Q848.8521,406.4419 848.2129,406.5913 Q847.5738,406.7407 846.8682,406.7407 Q844.3614,406.7407 843.0415,405.0889 Q841.7217,403.437 841.7217,400.3159 Q841.7217,397.1865 843.0415,395.5347 Q844.3614,393.8828 846.8682,393.8828 Q847.5738,393.8828 848.2212,394.0322 Q848.8687,394.1816 849.4331,394.4805 L849.4331,397.2031 Q848.8023,396.6221 848.2088,396.3523 Q847.6153,396.0825 846.9844,396.0825 Q845.6397,396.0825 844.9549,397.1492 Q844.2701,398.2158 844.2701,400.3159 Q844.2701,402.4077 844.9549,403.4744 Q845.6397,404.541 846.9844,404.541 Q847.6153,404.541 848.2088,404.2712 Q848.8023,404.0015 849.4331,403.4204 Z "/><text fill="#000000" font-family="sans-serif" font-size="12" lengthAdjust="spacingAndGlyphs" textLength="46" x="867.46" y="404.5352">Relation</text><line style="stroke: #A80036; stroke-width: 1.5;" x1="750.71" x2="997.71" y1="416" y2="416"/><text fill="#000000" font-family="sans-serif" font-size="11" lengthAdjust="spacingAndGlyphs" textLength="237" x="755.71" y="430.6348">Map&lt;MetaConcept, RoleBinding[]&gt; bindings</text><line style="stroke: #A80036; stroke-width: 1.5;" x1="750.71" x2="997.71" y1="436.9551" y2="436.9551"/><!--MD5=[37bf8ad159ee71e8ae363bd5bc286b6c]
class LocalRealm--><rect fill="#FEFECE" filter="url(#fxe1ldix2eka)" height="73.9102" id="LocalRealm" style="stroke: #A80036; stroke-width: 1.5;" width="188" x="1066.21" y="728.5"/><ellipse cx="1123.46" cy="744.5" fill="#ADD1B2" rx="11" ry="11" style="stroke: #A80036; stroke-width: 1.0;"/><path d="M1125.9331,750.6431 Q1125.3521,750.9419 1124.7129,751.0913 Q1124.0738,751.2407 1123.3682,751.2407 Q1120.8614,751.2407 1119.5415,749.5889 Q1118.2217,747.937 1118.2217,744.8159 Q1118.2217,741.6865 1119.5415,740.0347 Q1120.8614,738.3828 1123.3682,738.3828 Q1124.0738,738.3828 1124.7212,738.5322 Q1125.3687,738.6816 1125.9331,738.9805 L1125.9331,741.7031 Q1125.3023,741.1221 1124.7088,740.8523 Q1124.1153,740.5825 1123.4844,740.5825 Q1122.1397,740.5825 1121.4549,741.6492 Q1120.7701,742.7158 1120.7701,744.8159 Q1120.7701,746.9077 1121.4549,747.9744 Q1122.1397,749.041 1123.4844,749.041 Q1124.1153,749.041 1124.7088,748.7712 Q1125.3023,748.5015 1125.9331,747.9204 Z "/><text fill="#000000" font-family="sans-serif" font-size="12" lengthAdjust="spacingAndGlyphs" textLength="65" x="1143.96" y="749.0352">LocalRealm</text><line style="stroke: #A80036; stroke-width: 1.5;" x1="1067.21" x2="1253.21" y1="760.5" y2="760.5"/><text fill="#000000" font-family="sans-serif" font-size="11" lengthAdjust="spacingAndGlyphs" textLength="105" x="1072.21" y="775.1348">Concept[] concepts</text><line style="stroke: #A80036; stroke-width: 1.5;" x1="1067.21" x2="1253.21" y1="781.4551" y2="781.4551"/><text fill="#000000" font-family="sans-serif" font-size="11" lengthAdjust="spacingAndGlyphs" textLength="176" x="1072.21" y="796.0898">bool apply_command(BaseEvent)</text><!--MD5=[f8ba069d3d39019ddaf27cea3dd641b5]
class RemoteRealm--><rect fill="#FEFECE" filter="url(#fxe1ldix2eka)" height="86.8652" id="RemoteRealm" style="stroke: #A80036; stroke-width: 1.5;" width="174" x="1289.21" y="722"/><ellipse cx="1332.11" cy="738" fill="#ADD1B2" rx="11" ry="11" style="stroke: #A80036; stroke-width: 1.0;"/><path d="M1334.5831,744.1431 Q1334.0021,744.4419 1333.3629,744.5913 Q1332.7238,744.7407 1332.0182,744.7407 Q1329.5114,744.7407 1328.1915,743.0889 Q1326.8717,741.437 1326.8717,738.3159 Q1326.8717,735.1865 1328.1915,733.5347 Q1329.5114,731.8828 1332.0182,731.8828 Q1332.7238,731.8828 1333.3712,732.0322 Q1334.0187,732.1816 1334.5831,732.4805 L1334.5831,735.2031 Q1333.9523,734.6221 1333.3588,734.3523 Q1332.7653,734.0825 1332.1344,734.0825 Q1330.7897,734.0825 1330.1049,735.1492 Q1329.4201,736.2158 1329.4201,738.3159 Q1329.4201,740.4077 1330.1049,741.4744 Q1330.7897,742.541 1332.1344,742.541 Q1332.7653,742.541 1333.3588,742.2712 Q1333.9523,742.0015 1334.5831,741.4204 Z "/><text fill="#000000" font-family="sans-serif" font-size="12" lengthAdjust="spacingAndGlyphs" textLength="80" x="1352.31" y="742.5352">RemoteRealm</text><line style="stroke: #A80036; stroke-width: 1.5;" x1="1290.21" x2="1462.21" y1="754" y2="754"/><text fill="#000000" font-family="sans-serif" font-size="11" lengthAdjust="spacingAndGlyphs" textLength="57" x="1295.21" y="768.6348">capabilites</text><line style="stroke: #A80036; stroke-width: 1.5;" x1="1290.21" x2="1462.21" y1="774.9551" y2="774.9551"/><text fill="#000000" font-family="sans-serif" font-size="11" lengthAdjust="spacingAndGlyphs" textLength="61" x="1295.21" y="789.5898">subscribe()</text><text fill="#000000" font-family="sans-serif" font-size="11" lengthAdjust="spacingAndGlyphs" textLength="162" x="1295.21" y="802.5449">BaseEvent propose(BaseEvent)</text><!--MD5=[c160724f8e3bb89ca8141a12554ac2e3]
class Collection--><rect fill="#FEFECE" filter="url(#fxe1ldix2eka)" height="86.8652" id="Collection" style="stroke: #A80036; stroke-width: 1.5;" width="235" x="849.71" y="554.5"/><ellipse cx="935.46" cy="570.5" fill="#ADD1B2" rx="11" ry="11" style="stroke: #A80036; stroke-width: 1.0;"/><path d="M937.9331,576.6431 Q937.3521,576.9419 936.7129,577.0913 Q936.0738,577.2407 935.3682,577.2407 Q932.8614,577.2407 931.5415,575.5889 Q930.2217,573.937 930.2217,570.8159 Q930.2217,567.6865 931.5415,566.0347 Q932.8614,564.3828 935.3682,564.3828 Q936.0738,564.3828 936.7212,564.5322 Q937.3687,564.6816 937.9331,564.9805 L937.9331,567.7031 Q937.3023,567.1221 936.7088,566.8523 Q936.1153,566.5825 935.4844,566.5825 Q934.1397,566.5825 933.4549,567.6492 Q932.7701,568.7158 932.7701,570.8159 Q932.7701,572.9077 933.4549,573.9744 Q934.1397,575.041 935.4844,575.041 Q936.1153,575.041 936.7088,574.7712 Q937.3023,574.5015 937.9331,573.9204 Z "/><text fill="#000000" font-family="sans-serif" font-size="12" lengthAdjust="spacingAndGlyphs" textLength="55" x="955.96" y="575.0352">Collection</text><line style="stroke: #A80036; stroke-width: 1.5;" x1="850.71" x2="1083.71" y1="586.5" y2="586.5"/><text fill="#000000" font-family="sans-serif" font-size="11" lengthAdjust="spacingAndGlyphs" textLength="213" x="855.71" y="601.1348">Map&lt;rId, RoleBinding[]&gt; excludedRoles</text><text fill="#000000" font-family="sans-serif" font-size="11" lengthAdjust="spacingAndGlyphs" textLength="223" x="855.71" y="614.0898">Map&lt;rId, Attribute[]&gt; excludedAttributes</text><line style="stroke: #A80036; stroke-width: 1.5;" x1="850.71" x2="1083.71" y1="620.4102" y2="620.4102"/><text fill="#000000" font-family="sans-serif" font-size="11" lengthAdjust="spacingAndGlyphs" textLength="110" x="855.71" y="635.0449">Concept[] contains()</text><!--MD5=[43725569508a3c04684bbe9afd21de3d]
class VirtualProxy--><rect fill="#FEFECE" filter="url(#fxe1ldix2eka)" height="48" id="VirtualProxy" style="stroke: #A80036; stroke-width: 1.5;" width="101" x="713.71" y="574"/><ellipse cx="728.71" cy="590" fill="#ADD1B2" rx="11" ry="11" style="stroke: #A80036; stroke-width: 1.0;"/><path d="M731.1831,596.1431 Q730.6021,596.4419 729.9629,596.5913 Q729.3238,596.7407 728.6182,596.7407 Q726.1114,596.7407 724.7915,595.0889 Q723.4717,593.437 723.4717,590.3159 Q723.4717,587.1865 724.7915,585.5347 Q726.1114,583.8828 728.6182,583.8828 Q729.3238,583.8828 729.9712,584.0322 Q730.6187,584.1816 731.1831,584.4805 L731.1831,587.2031 Q730.5523,586.6221 729.9588,586.3523 Q729.3653,586.0825 728.7344,586.0825 Q727.3897,586.0825 726.7049,587.1492 Q726.0201,588.2158 726.0201,590.3159 Q726.0201,592.4077 726.7049,593.4744 Q727.3897,594.541 728.7344,594.541 Q729.3653,594.541 729.9588,594.2712 Q730.5523,594.0015 731.1831,593.4204 Z "/><text fill="#000000" font-family="sans-serif" font-size="12" lengthAdjust="spacingAndGlyphs" textLength="69" x="742.71" y="594.5352">VirtualProxy</text><line style="stroke: #A80036; stroke-width: 1.5;" x1="714.71" x2="813.71" y1="606" y2="606"/><line style="stroke: #A80036; stroke-width: 1.5;" x1="714.71" x2="813.71" y1="614" y2="614"/><!--MD5=[3cadb48bfc490359cddda449a6470a2d]
class RealmRegistry--><rect fill="#FEFECE" filter="url(#fxe1ldix2eka)" height="86.8652" id="RealmRegistry" style="stroke: #A80036; stroke-width: 1.5;" width="137" x="1033.71" y="371"/><ellipse cx="1059.06" cy="387" fill="#ADD1B2" rx="11" ry="11" style="stroke: #A80036; stroke-width: 1.0;"/><path d="M1061.5331,393.1431 Q1060.9521,393.4419 1060.3129,393.5913 Q1059.6738,393.7407 1058.9682,393.7407 Q1056.4614,393.7407 1055.1415,392.0889 Q1053.8217,390.437 1053.8217,387.3159 Q1053.8217,384.1865 1055.1415,382.5347 Q1056.4614,380.8828 1058.9682,380.8828 Q1059.6738,380.8828 1060.3212,381.0322 Q1060.9687,381.1816 1061.5331,381.4805 L1061.5331,384.2031 Q1060.9023,383.6221 1060.3088,383.3523 Q1059.7153,383.0825 1059.0844,383.0825 Q1057.7397,383.0825 1057.0549,384.1492 Q1056.3701,385.2158 1056.3701,387.3159 Q1056.3701,389.4077 1057.0549,390.4744 Q1057.7397,391.541 1059.0844,391.541 Q1059.7153,391.541 1060.3088,391.2712 Q1060.9023,391.0015 1061.5331,390.4204 Z "/><text fill="#000000" font-family="sans-serif" font-size="12" lengthAdjust="spacingAndGlyphs" textLength="82" x="1075.36" y="391.5352">RealmRegistry</text><line style="stroke: #A80036; stroke-width: 1.5;" x1="1034.71" x2="1169.71" y1="403" y2="403"/><line style="stroke: #A80036; stroke-width: 1.5;" x1="1034.71" x2="1169.71" y1="411" y2="411"/><text fill="#000000" font-family="sans-serif" font-size="11" lengthAdjust="spacingAndGlyphs" textLength="82" x="1039.71" y="425.6348">register(Realm)</text><text fill="#000000" font-family="sans-serif" font-size="11" lengthAdjust="spacingAndGlyphs" textLength="107" x="1039.71" y="438.5898">Realm getRealm(url)</text><text fill="#000000" font-family="sans-serif" font-size="11" lengthAdjust="spacingAndGlyphs" textLength="125" x="1039.71" y="451.5449">BaseTopic byName(gId)</text><!--MD5=[0262b8d08914f2e99e63e58f6adef916]
reverse link BaseTopic to Concept--><path d="M784.21,114.43 C784.21,127.53 784.21,141.4 784.21,154.7 " fill="none" id="BaseTopic&lt;-Concept" style="stroke: #A80036; stroke-width: 1.0;"/><polygon fill="none" points="777.21,114.02,784.21,94.02,791.21,114.02,777.21,114.02" style="stroke: #A80036; stroke-width: 1.0;"/><!--MD5=[e92a76dc548d67c85e83d7b46e7ee50c]
reverse link BaseTopic to SingleTypeTopic--><path d="M702.51,105.13 C661.81,131.86 613.67,163.46 577.38,187.29 " fill="none" id="BaseTopic&lt;-SingleTypeTopic" style="stroke: #A80036; stroke-width: 1.0;"/><polygon fill="none" points="698.89,99.14,719.45,94.02,706.57,110.84,698.89,99.14" style="stroke: #A80036; stroke-width: 1.0;"/><!--MD5=[0c61962e3bc4a34445872b61d8666c87]
link SingleTypeTopic to MetaConcept--><path d="M463.96,261.53 C408.12,296.06 324.58,347.72 270.74,381.02 " fill="none" id="SingleTypeTopic-&gt;MetaConcept" style="stroke: #0000FF; stroke-width: 1.0;"/><polygon fill="#0000FF" points="266.27,383.78,276.0293,382.4552,270.5244,381.1531,271.8264,375.6482,266.27,383.78" style="stroke: #0000FF; stroke-width: 1.0;"/><polygon fill="#000000" points="369.21,331.1553,363.21,334.1553,369.21,337.1553,369.21,331.1553" style="stroke: #000000; stroke-width: 1.0;"/><text fill="#000000" font-family="sans-serif" font-size="13" lengthAdjust="spacingAndGlyphs" textLength="27" x="375.21" y="337.5684">type</text><text fill="#000000" font-family="sans-serif" font-size="13" lengthAdjust="spacingAndGlyphs" textLength="8" x="267.9081" y="373.0266">1</text><!--MD5=[5e4da58255e18c782ada0057e6c5c3b2]
reverse link SingleTypeTopic to RoleBinding--><path d="M439.28,240.3 C321.44,263.21 114.94,310.94 71.21,371 C30.43,427.01 82.7,500.3 128.43,548 " fill="none" id="SingleTypeTopic&lt;-RoleBinding" style="stroke: #A80036; stroke-width: 1.0;"/><polygon fill="none" points="438.18,233.38,459.14,236.51,440.8,247.13,438.18,233.38" style="stroke: #A80036; stroke-width: 1.0;"/><!--MD5=[a5a782d934781a02dd81cc0196ac345e]
reverse link BaseTopic to BaseEvent--><path d="M912.93,63.74 C1155.28,88.55 1655.21,148.76 1655.21,223.5 C1655.21,223.5 1655.21,223.5 1655.21,766.5 C1655.21,802.52 1641.86,840.8 1628.56,870 " fill="none" id="BaseTopic&lt;-BaseEvent" style="stroke: #A80036; stroke-width: 1.0;"/><polygon fill="none" points="911.96,70.68,892.76,61.7,913.37,56.75,911.96,70.68" style="stroke: #A80036; stroke-width: 1.0;"/><!--MD5=[78bb5ef4651b8da1e43185cbd771bb04]
reverse link SingleTypeTopic to SimpleRelation--><path d="M559.91,278.39 C582.43,309.99 610.45,349.3 630.45,377.36 " fill="none" id="SingleTypeTopic&lt;-SimpleRelation" style="stroke: #A80036; stroke-width: 1.0;"/><polygon fill="none" points="553.96,282.1,548.05,261.75,565.36,273.97,553.96,282.1" style="stroke: #A80036; stroke-width: 1.0;"/><!--MD5=[d944c641fe591d6d4933115826c92002]
reverse link SingleTypeTopic to Attribute--><path d="M522.21,281.94 C522.21,315.46 522.21,356.6 522.21,383.85 " fill="none" id="SingleTypeTopic&lt;-Attribute" style="stroke: #A80036; stroke-width: 1.0;"/><polygon fill="none" points="515.21,281.75,522.21,261.75,529.21,281.75,515.21,281.75" style="stroke: #A80036; stroke-width: 1.0;"/><!--MD5=[ddf6065f9ef8c213657c3c11644159cf]
reverse link Concept to SimpleRelation--><path d="M757.76,299.17 C751.09,313.63 743.22,328.25 734.21,341 C725.04,353.98 713.22,366.43 701.58,377.23 " fill="none" id="Concept&lt;-SimpleRelation" style="stroke: #0000FF; stroke-width: 1.0;"/><polygon fill="#0000FF" points="759.98,294.27,752.6313,300.8272,757.9228,298.8272,759.9229,304.1187,759.98,294.27" style="stroke: #0000FF; stroke-width: 1.0;"/><text fill="#000000" font-family="sans-serif" font-size="13" lengthAdjust="spacingAndGlyphs" textLength="8" x="749.2893" y="314.2329">1</text><text fill="#000000" font-family="sans-serif" font-size="13" lengthAdjust="spacingAndGlyphs" textLength="6" x="703.1272" y="366.8594">*</text><!--MD5=[63f0d95850707a5fac7c0a02e2af4cee]
link BaseEvent to BaseEvent--><path d="M1692.3071,906.4067 C1692.3071,906.4067 1715.21,913.18 1715.21,920 C1715.21,926.82 1706.45,931.31 1693.42,933.48 " fill="none" id="BaseEvent-BaseEvent" style="stroke: #0000FF; stroke-width: 1.0;"/><polygon fill="#0000FF" points="1680.37,934.82,1689.7317,937.879,1685.3438,934.3089,1688.914,929.9209,1680.37,934.82" style="stroke: #0000FF; stroke-width: 1.0;"/><line style="stroke: #0000FF; stroke-width: 1.0;" x1="1685.3438" x2="1693.305" y1="934.3089" y2="933.495"/><polygon fill="#0000FF" points="1680.37,905.18,1685.9297,909.7724,1692.3071,906.4067,1686.7475,901.8143,1680.37,905.18" style="stroke: #0000FF; stroke-width: 1.0;"/><polygon fill="#000000" points="1723.21,918.6553,1717.21,921.6553,1723.21,924.6553,1723.21,918.6553" style="stroke: #000000; stroke-width: 1.0;"/><text fill="#000000" font-family="sans-serif" font-size="13" lengthAdjust="spacingAndGlyphs" textLength="78" x="1734.21" y="925.0684">derivedFrom</text><text fill="#000000" font-family="sans-serif" font-size="13" lengthAdjust="spacingAndGlyphs" textLength="8" x="1688.2009" y="900.6443">1</text><text fill="#000000" font-family="sans-serif" font-size="13" lengthAdjust="spacingAndGlyphs" textLength="6" x="1688.1056" y="933.1094">*</text><!--MD5=[53e96edeba1c767af9ef89a150ee1164]
link Realm to BaseTopic--><path d="M1457.3645,526.0606 C1457.3645,526.0606 1534.7,421.01 1502.21,371 C1369.72,167.03 1073.6,92.2 905.97,65.57 " fill="none" id="Realm-BaseTopic" style="stroke: #0000FF; stroke-width: 1.0;"/><polygon fill="#0000FF" points="892.89,63.54,901.174,68.8668,897.8314,64.3032,902.3951,60.9606,892.89,63.54" style="stroke: #0000FF; stroke-width: 1.0;"/><line style="stroke: #0000FF; stroke-width: 1.0;" x1="897.8314" x2="905.735" y1="64.3032" y2="65.53"/><polygon fill="#FFFFFF" points="1449.12,534.78,1456.1487,533.1685,1457.3645,526.0606,1450.3358,527.6721,1449.12,534.78" style="stroke: #0000FF; stroke-width: 1.0;"/><polygon fill="#000000" points="1486.21,331.1553,1480.21,334.1553,1486.21,337.1553,1486.21,331.1553" style="stroke: #000000; stroke-width: 1.0;"/><text fill="#000000" font-family="sans-serif" font-size="13" lengthAdjust="spacingAndGlyphs" textLength="39" x="1492.21" y="337.5684">topics</text><!--MD5=[59445e4589ff7c406dce9c91a6ce6835]
link Realm to Concept--><path d="M1408.5813,523.6219 C1408.5813,523.6219 1433.53,413.11 1400.21,371 C1342.78,298.43 1094.25,258.37 930.95,239.45 " fill="none" id="Realm-Concept" style="stroke: #0000FF; stroke-width: 1.0;"/><polygon fill="#0000FF" points="917.88,237.96,926.3693,242.9531,922.8479,238.526,927.275,235.0046,917.88,237.96" style="stroke: #0000FF; stroke-width: 1.0;"/><line style="stroke: #0000FF; stroke-width: 1.0;" x1="922.8479" x2="930.795" y1="238.526" y2="239.43"/><polygon fill="#0000FF" points="1404.68,534.97,1410.4134,530.5964,1408.5813,523.6219,1402.848,527.9955,1404.68,534.97" style="stroke: #0000FF; stroke-width: 1.0;"/><polygon fill="#000000" points="1430.21,413.1553,1424.21,416.1553,1430.21,419.1553,1430.21,413.1553" style="stroke: #000000; stroke-width: 1.0;"/><text fill="#000000" font-family="sans-serif" font-size="13" lengthAdjust="spacingAndGlyphs" textLength="57" x="1436.21" y="419.5684">concepts</text><!--MD5=[da6594f0defd055a926e536792d16732]
link Realm to EventStream--><path d="M1450.1937,669.3716 C1450.1937,669.3716 1497.72,714.58 1516.39,732.33 " fill="none" id="Realm-EventStream" style="stroke: #A80036; stroke-width: 1.0;"/><polygon fill="#A80036" points="1525.91,741.38,1522.1469,732.2784,1522.2876,737.9335,1516.6325,738.0742,1525.91,741.38" style="stroke: #A80036; stroke-width: 1.0;"/><line style="stroke: #A80036; stroke-width: 1.0;" x1="1522.2876" x2="1516.485" y1="737.9335" y2="732.425"/><polygon fill="#A80036" points="1441.5,661.1,1443.0897,668.1337,1450.1937,669.3716,1448.6041,662.3379,1441.5,661.1" style="stroke: #A80036; stroke-width: 1.0;"/><text fill="#000000" font-family="sans-serif" font-size="13" lengthAdjust="spacingAndGlyphs" textLength="8" x="1510.6581" y="730.8855">1</text><!--MD5=[a4efc5b097c93936ba5a0320126feb99]
link EventStream to BaseEvent--><path d="M1561.9759,801.0202 C1561.9759,801.0202 1574.75,838.47 1581.16,857.26 " fill="none" id="EventStream-BaseEvent" style="stroke: #A80036; stroke-width: 1.0;"/><polygon fill="#A80036" points="1585.4,869.69,1586.2771,859.8803,1583.7843,864.9583,1578.7063,862.4654,1585.4,869.69" style="stroke: #A80036; stroke-width: 1.0;"/><line style="stroke: #A80036; stroke-width: 1.0;" x1="1583.7843" x2="1581.205" y1="864.9583" y2="857.39"/><polygon fill="#FFFFFF" points="1558.11,789.66,1556.2562,796.6287,1561.9759,801.0202,1563.8297,794.0515,1558.11,789.66" style="stroke: #A80036; stroke-width: 1.0;"/><text fill="#000000" font-family="sans-serif" font-size="13" lengthAdjust="spacingAndGlyphs" textLength="6" x="1576.6142" y="859.1633">*</text><!--MD5=[dfe66205316158bead21bfc03432fb59]
reverse link Concept to Process--><path d="M936.83,279.02 C1012.65,305.98 1105.51,339.54 1188.21,371 C1193.86,373.15 1199.67,375.39 1205.52,377.67 " fill="none" id="Concept&lt;-Process" style="stroke: #A80036; stroke-width: 1.0;"/><polygon fill="none" points="934.45,285.6,917.94,272.31,939.13,272.41,934.45,285.6" style="stroke: #A80036; stroke-width: 1.0;"/><!--MD5=[54f9360500e0fd532969fc16f437bbea]
reverse link Concept to Relation--><path d="M825.9,312.58 C838.15,338.18 850.74,364.47 859.99,383.79 " fill="none" id="Concept&lt;-Relation" style="stroke: #A80036; stroke-width: 1.0;"/><polygon fill="none" points="819.41,315.23,817.09,294.17,832.04,309.19,819.41,315.23" style="stroke: #A80036; stroke-width: 1.0;"/><!--MD5=[a71efbd299ab5f8d11da3325c70662e6]
reverse link Process to Realm--><path d="M1321.73,476.41 C1330.22,495.2 1339.57,515.9 1348.1,534.77 " fill="none" id="Process&lt;-Realm" style="stroke: #A80036; stroke-width: 1.0;"/><polygon fill="none" points="1315.29,479.16,1313.44,458.05,1328.05,473.4,1315.29,479.16" style="stroke: #A80036; stroke-width: 1.0;"/><!--MD5=[062c3220944d422d335fac65c84c78aa]
reverse link Realm to LocalRealm--><path d="M1279,673.48 C1254.16,692.52 1228.54,712.15 1207.48,728.28 " fill="none" id="Realm&lt;-LocalRealm" style="stroke: #A80036; stroke-width: 1.0;"/><polygon fill="none" points="1275.03,667.7,1295.17,661.1,1283.55,678.82,1275.03,667.7" style="stroke: #A80036; stroke-width: 1.0;"/><!--MD5=[a168f9dc9ce15b6b8dba3a35ce02dd5e]
reverse link Realm to RemoteRealm--><path d="M1376.21,681.43 C1376.21,695.45 1376.21,709.47 1376.21,721.91 " fill="none" id="Realm&lt;-RemoteRealm" style="stroke: #A80036; stroke-width: 1.0;"/><polygon fill="none" points="1369.21,681.1,1376.21,661.1,1383.21,681.1,1369.21,681.1" style="stroke: #A80036; stroke-width: 1.0;"/><!--MD5=[e05bd0f89e5441c6424ac511b95e48ac]
reverse link Concept to MetaConcept--><path d="M631.38,283.76 C621.53,287.28 611.75,290.73 602.21,294 C506.79,326.77 396.75,360.62 318.99,383.89 " fill="none" id="Concept&lt;-MetaConcept" style="stroke: #A80036; stroke-width: 1.0;"/><polygon fill="none" points="629.16,277.11,650.35,276.89,633.93,290.28,629.16,277.11" style="stroke: #A80036; stroke-width: 1.0;"/><!--MD5=[52cb5d9bbc8373ee891963ac13fd8885]
link Relation to RoleBinding--><path d="M770.2104,448.6105 C770.2104,448.6105 641.31,487.9 577.21,505 C462.58,535.59 327.72,565.77 248.93,582.82 " fill="none" id="Relation-RoleBinding" style="stroke: #0000FF; stroke-width: 1.0;"/><polygon fill="#0000FF" points="235.83,585.65,245.4711,587.6621,240.7176,584.5956,243.7841,579.842,235.83,585.65" style="stroke: #0000FF; stroke-width: 1.0;"/><line style="stroke: #0000FF; stroke-width: 1.0;" x1="240.7176" x2="248.54" y1="584.5956" y2="582.91"/><polygon fill="#0000FF" points="781.67,445.05,774.7534,443.0104,770.2104,448.6105,777.127,450.6501,781.67,445.05" style="stroke: #0000FF; stroke-width: 1.0;"/><polygon fill="#000000" points="643.21,495.1553,637.21,498.1553,643.21,501.1553,643.21,495.1553" style="stroke: #000000; stroke-width: 1.0;"/><text fill="#000000" font-family="sans-serif" font-size="13" lengthAdjust="spacingAndGlyphs" textLength="55" x="649.21" y="501.5684">bindings</text><text fill="#000000" font-family="sans-serif" font-size="13" lengthAdjust="spacingAndGlyphs" textLength="8" x="753.7586" y="465.5028">1</text><text fill="#000000" font-family="sans-serif" font-size="13" lengthAdjust="spacingAndGlyphs" textLength="6" x="243.7922" y="597.5708">*</text><!--MD5=[58b265bd168d99a1dd448e5a3756a49e]
link RoleBinding to BaseTopic--><path d="M128.52,557.99 C109.9,542.8 89.8,524.39 74.21,505 C23.48,441.88 6,389.8 53.21,324 C196.27,124.66 502.92,70.98 669.99,56.64 " fill="none" id="RoleBinding-&gt;BaseTopic" style="stroke: #0000FF; stroke-width: 1.0;"/><polygon fill="#0000FF" points="675.38,56.19,666.0705,52.9755,670.3984,56.6182,666.7556,60.9461,675.38,56.19" style="stroke: #0000FF; stroke-width: 1.0;"/><text fill="#000000" font-family="sans-serif" font-size="13" lengthAdjust="spacingAndGlyphs" textLength="32" x="54.21" y="337.5684">actor</text><polygon fill="#000000" points="89.21,331.1553,95.21,334.1553,89.21,337.1553,89.21,331.1553" style="stroke: #000000; stroke-width: 1.0;"/><text fill="#000000" font-family="sans-serif" font-size="13" lengthAdjust="spacingAndGlyphs" textLength="6" x="114.548" y="548.9117">*</text><text fill="#000000" font-family="sans-serif" font-size="13" lengthAdjust="spacingAndGlyphs" textLength="8" x="659.7992" y="53.6517">1</text><!--MD5=[ed9cd051d959c9e7f2a31a64f7e2473c]
link Concept to Attribute--><path d="M677.7534,301.0524 C677.7534,301.0524 611.43,348.43 580.21,371 C577.87,372.69 575.48,374.43 573.06,376.18 " fill="none" id="Concept-Attribute" style="stroke: #0000FF; stroke-width: 1.0;"/><polygon fill="#0000FF" points="562.41,383.94,572.0386,381.8689,566.4499,380.9939,567.3249,375.4051,562.41,383.94" style="stroke: #0000FF; stroke-width: 1.0;"/><line style="stroke: #0000FF; stroke-width: 1.0;" x1="566.4499" x2="572.92" y1="380.9939" y2="376.285"/><polygon fill="#0000FF" points="687.52,294.08,680.3126,294.3107,677.7534,301.0524,684.9608,300.8217,687.52,294.08" style="stroke: #0000FF; stroke-width: 1.0;"/><text fill="#000000" font-family="sans-serif" font-size="13" lengthAdjust="spacingAndGlyphs" textLength="8" x="669.6083" y="314.2667">1</text><text fill="#000000" font-family="sans-serif" font-size="13" lengthAdjust="spacingAndGlyphs" textLength="6" x="564.5475" y="373.2216">*</text><!--MD5=[2b3e7e1db0703ff73ae99c233f244427]
reverse link Relation to Collection--><path d="M898.69,463.26 C913.15,491.49 931.3,526.92 945.29,554.23 " fill="none" id="Relation&lt;-Collection" style="stroke: #A80036; stroke-width: 1.0;"/><polygon fill="none" points="892.25,466.06,889.36,445.07,904.71,459.67,892.25,466.06" style="stroke: #A80036; stroke-width: 1.0;"/><!--MD5=[c5ae6cc8e547fd205a051ec0e11b625f]
reverse link Relation to VirtualProxy--><path d="M845.73,462.5 C824.07,498.23 795.21,545.85 778.28,573.79 " fill="none" id="Relation&lt;-VirtualProxy" style="stroke: #A80036; stroke-width: 1.0;"/><polygon fill="none" points="839.94,458.54,856.29,445.07,851.91,465.8,839.94,458.54" style="stroke: #A80036; stroke-width: 1.0;"/><!--MD5=[d6df0dc8f123051567b2aab171db4d33]
link SimpleRelation to RoleBinding--><path d="M587.0606,454.7938 C587.0606,454.7938 582.11,457.14 580.21,458 C572.33,461.55 359.23,535.6 248.16,574.13 " fill="none" id="SimpleRelation-RoleBinding" style="stroke: #0000FF; stroke-width: 1.0;"/><polygon fill="#0000FF" points="235.8,578.42,245.6136,579.2528,240.5244,576.7829,242.9943,571.6938,235.8,578.42" style="stroke: #0000FF; stroke-width: 1.0;"/><line style="stroke: #0000FF; stroke-width: 1.0;" x1="240.5244" x2="248.08" y1="576.7829" y2="574.16"/><polygon fill="#0000FF" points="597.82,449.48,590.6691,448.5504,587.0606,454.7938,594.2116,455.7233,597.82,449.48" style="stroke: #0000FF; stroke-width: 1.0;"/><text fill="#000000" font-family="sans-serif" font-size="13" lengthAdjust="spacingAndGlyphs" textLength="77" x="491.21" y="501.5684">source, dest</text><text fill="#000000" font-family="sans-serif" font-size="13" lengthAdjust="spacingAndGlyphs" textLength="8" x="582.2162" y="450.4219">1</text><text fill="#000000" font-family="sans-serif" font-size="13" lengthAdjust="spacingAndGlyphs" textLength="8" x="243.5387" y="572.3824">1</text><!--MD5=[921f32b8193e21afa6ad18c670b7033f]
link RealmRegistry to Realm--><path d="M1166.45,458.05 C1199.66,480.05 1240.91,507.38 1278.02,531.96 " fill="none" id="RealmRegistry-&gt;Realm" style="stroke: #0000FF; stroke-width: 1.0;"/><polygon fill="#0000FF" points="1282.52,534.94,1277.2174,526.6404,1278.3488,532.183,1272.8062,533.3144,1282.52,534.94" style="stroke: #0000FF; stroke-width: 1.0;"/><text fill="#000000" font-family="sans-serif" font-size="13" lengthAdjust="spacingAndGlyphs" textLength="6" x="1265.9445" y="524.8226">*</text><!--MD5=[cdfd5eb6f8b81c4b5b013bf1699777f8]
link MetaConcept to MetaConcept--><path d="M347.46,400.34 C368.09,402.41 382.21,407.13 382.21,414.5 C382.21,421.23 370.41,425.76 352.63,428.07 " fill="none" id="MetaConcept-&gt;MetaConcept" style="stroke: #0000FF; stroke-width: 1.0;"/><polygon fill="#0000FF" points="347.46,428.66,356.8579,431.6061,352.4273,428.089,355.9444,423.6584,347.46,428.66" style="stroke: #0000FF; stroke-width: 1.0;"/><text fill="#000000" font-family="sans-serif" font-size="13" lengthAdjust="spacingAndGlyphs" textLength="69" x="388.21" y="419.5684">supertypes</text><text fill="#000000" font-family="sans-serif" font-size="13" lengthAdjust="spacingAndGlyphs" textLength="8" x="355.1635" y="396.6664">1</text><text fill="#000000" font-family="sans-serif" font-size="13" lengthAdjust="spacingAndGlyphs" textLength="6" x="355.1057" y="426.6237">*</text><!--MD5=[493570a7a279d124a47da9cde9bfc05b]
@startuml
BaseTopic <|- - Concept
BaseTopic <|- - SingleTypeTopic
SingleTypeTopic : rId typeId
SingleTypeTopic : gId typeRealmId
SingleTypeTopic - -> "1" MetaConcept #blue : type >
SingleTypeTopic <|- - RoleBinding
BaseTopic <|- - BaseEvent
BaseEvent : MetaConcept inherentType
SingleTypeTopic <|- - SimpleRelation
SingleTypeTopic <|- - Attribute
Concept "1" <- - "*" SimpleRelation  #blue
BaseEvent "1" *- -> "*" BaseEvent  #blue : derivedFrom >
BaseEvent : BaseEvent derivedFrom
' Concept <|- - BaseEvent
Realm o- -> BaseTopic  #blue : > topics
Realm *- -> Concept  #blue : > concepts
'BaseEvent <- -* Realm  #blue  : < events
Realm *- -> "1" EventStream
EventStream o- -> "*" BaseEvent
Concept <|- - Process
Process : Capability inbox
Process : eventSignature
Concept <|- - Relation
Process <|- - Realm
Realm <|- - LocalRealm
Realm <|- - RemoteRealm
Concept <|- - MetaConcept
Relation "1" *- -> "*" RoleBinding #blue: bindings >
' Concept : RoleBinding[] bindings
RoleBinding "*" - -> "1" BaseTopic #blue : actor >
Concept "1" *- -> "*" Attribute  #blue
Relation <|- - Collection
'Collection "*" - -> "*" BaseTopic: contains >
Relation <|- - VirtualProxy
' BaseEvent - -> "1" Realm: inRealm
BaseTopic : rId id
BaseTopic : gId realmId
' BaseTopic : gId baseType
Concept : Map<realmId,conceptId> externalReferences
Concept : Map<conceptId,Attribute> functionalAttributes
Concept : Map<conceptId,Attribute[]> setAttributes
Concept : Set<MetaConcept> types
Concept : MetaConcept[] types()
Concept : SplitEvents[] splitHistory()
BaseTopic : Relation[] inRelations(role, assocType)
Concept : Collection[] inCollections()
Realm : int lastEventId
' RoleBinding - -> "1" MetaConcept #blue: role >
RoleBinding : rId actorId
RoleBinding : Realm actorRealm
RoleBinding : rId roleId
RoleBinding : Realm roleRealm
' BaseEvent <- - RoleBinding #blue: origin <
' BaseEvent <- - Concept #blue: origin <
' BaseEvent <- - Attribute #blue: origin <
Collection : Concept[] contains()
Collection : Map<rId, RoleBinding[]> excludedRoles
Collection : Map<rId, Attribute[]> excludedAttributes
Realm : -Relation[] relationsOfTopic(rId)
Realm : Concept byId(rId)
Realm : Concept byName(name)
Realm : Map<rId, Concept> concepts
Realm : Map<rId, BaseEvent> events
MetaConcept : boolean isSubtypeOf(MetaConcept supertype)
RemoteRealm : capabilites
RemoteRealm : subscribe()
RemoteRealm : BaseEvent propose(BaseEvent)
LocalRealm : Concept[] concepts
LocalRealm : bool apply_command(BaseEvent)
Process : BaseEvent[] expand(BaseEvent)
SimpleRelation : RoleBinding source
SimpleRelation : RoleBinding dest
SimpleRelation "1" *- -> "1" RoleBinding #blue : source, dest
Relation : Map<MetaConcept, RoleBinding[]> bindings
' BaseEvent : id
' BaseEvent "1" - -> "0..1" BaseEvent: origin
BaseEvent : User creator
' Attribute - -> "1" MetaConcept #blue : attributeType >
Attribute : ? value
RealmRegistry - -> "*" Realm  #blue
RealmRegistry : register(Realm)
RealmRegistry : Realm getRealm(url)
RealmRegistry : BaseTopic byName(gId)
MetaConcept "1" - -> "*" MetaConcept #blue : supertypes
' BaseEvent <|- - DerivedEvent
' DerivedEvent - -> "1" BaseEvent: original >
' DerivedEvent : BaseEvent original
BaseEvent : BaseEvent[] events()

@enduml

@startuml
BaseTopic <|- - Concept
BaseTopic <|- - SingleTypeTopic
SingleTypeTopic : rId typeId
SingleTypeTopic : gId typeRealmId
SingleTypeTopic - -> "1" MetaConcept #blue : type >
SingleTypeTopic <|- - RoleBinding
BaseTopic <|- - BaseEvent
BaseEvent : MetaConcept inherentType
SingleTypeTopic <|- - SimpleRelation
SingleTypeTopic <|- - Attribute
Concept "1" <- - "*" SimpleRelation  #blue
BaseEvent "1" *- -> "*" BaseEvent  #blue : derivedFrom >
BaseEvent : BaseEvent derivedFrom
Realm o- -> BaseTopic  #blue : > topics
Realm *- -> Concept  #blue : > concepts
Realm *- -> "1" EventStream
EventStream o- -> "*" BaseEvent
Concept <|- - Process
Process : Capability inbox
Process : eventSignature
Concept <|- - Relation
Process <|- - Realm
Realm <|- - LocalRealm
Realm <|- - RemoteRealm
Concept <|- - MetaConcept
Relation "1" *- -> "*" RoleBinding #blue: bindings >
RoleBinding "*" - -> "1" BaseTopic #blue : actor >
Concept "1" *- -> "*" Attribute  #blue
Relation <|- - Collection
Relation <|- - VirtualProxy
BaseTopic : rId id
BaseTopic : gId realmId
Concept : Map<realmId,conceptId> externalReferences
Concept : Map<conceptId,Attribute> functionalAttributes
Concept : Map<conceptId,Attribute[]> setAttributes
Concept : Set<MetaConcept> types
Concept : MetaConcept[] types()
Concept : SplitEvents[] splitHistory()
BaseTopic : Relation[] inRelations(role, assocType)
Concept : Collection[] inCollections()
Realm : int lastEventId
RoleBinding : rId actorId
RoleBinding : Realm actorRealm
RoleBinding : rId roleId
RoleBinding : Realm roleRealm
Collection : Concept[] contains()
Collection : Map<rId, RoleBinding[]> excludedRoles
Collection : Map<rId, Attribute[]> excludedAttributes
Realm : -Relation[] relationsOfTopic(rId)
Realm : Concept byId(rId)
Realm : Concept byName(name)
Realm : Map<rId, Concept> concepts
Realm : Map<rId, BaseEvent> events
MetaConcept : boolean isSubtypeOf(MetaConcept supertype)
RemoteRealm : capabilites
RemoteRealm : subscribe()
RemoteRealm : BaseEvent propose(BaseEvent)
LocalRealm : Concept[] concepts
LocalRealm : bool apply_command(BaseEvent)
Process : BaseEvent[] expand(BaseEvent)
SimpleRelation : RoleBinding source
SimpleRelation : RoleBinding dest
SimpleRelation "1" *- -> "1" RoleBinding #blue : source, dest
Relation : Map<MetaConcept, RoleBinding[]> bindings
BaseEvent : User creator
Attribute : ? value
RealmRegistry - -> "*" Realm  #blue
RealmRegistry : register(Realm)
RealmRegistry : Realm getRealm(url)
RealmRegistry : BaseTopic byName(gId)
MetaConcept "1" - -> "*" MetaConcept #blue : supertypes
BaseEvent : BaseEvent[] events()

@enduml

PlantUML version 1.2020.13(Sat Jun 13 08:26:38 EDT 2020)
(GPL source distribution)
Java Runtime: OpenJDK Runtime Environment
JVM: OpenJDK 64-Bit Server VM
Default Encoding: UTF-8
Language: fr
Country: CA
--></g></svg>