<?xml version="1.0" encoding="UTF-8" standalone="no"?><svg xmlns="http://www.w3.org/2000/svg" xmlns:xlink="http://www.w3.org/1999/xlink" contentScriptType="application/ecmascript" contentStyleType="text/css" height="1454px" preserveAspectRatio="none" style="width:1645px;height:1454px;" version="1.1" viewBox="0 0 1645 1454" width="1645px" zoomAndPan="magnify"><defs><filter height="300%" id="f15ytvsey3j1e" width="300%" x="-1" y="-1"><feGaussianBlur result="blurOut" stdDeviation="2.0"/><feColorMatrix in="blurOut" result="blurOut2" type="matrix" values="0 0 0 0 0 0 0 0 0 0 0 0 0 0 0 0 0 0 .4 0"/><feOffset dx="4.0" dy="4.0" in="blurOut2" result="blurOut3"/><feBlend in="SourceGraphic" in2="blurOut3" mode="normal"/></filter></defs><g><!--MD5=[ca2e5f27d3887f24cfd5b0ca8a5b310c]
class TopicRef--><rect fill="#FEFECE" filter="url(#f15ytvsey3j1e)" height="73.9102" id="TopicRef" style="stroke: #A80036; stroke-width: 1.5;" width="83" x="526" y="7"/><ellipse cx="541" cy="23" fill="#ADD1B2" rx="11" ry="11" style="stroke: #A80036; stroke-width: 1.0;"/><path d="M543.4731,29.1431 Q542.8921,29.4419 542.2529,29.5913 Q541.6138,29.7407 540.9082,29.7407 Q538.4014,29.7407 537.0815,28.0889 Q535.7617,26.437 535.7617,23.3159 Q535.7617,20.1865 537.0815,18.5347 Q538.4014,16.8828 540.9082,16.8828 Q541.6138,16.8828 542.2612,17.0322 Q542.9087,17.1816 543.4731,17.4805 L543.4731,20.2031 Q542.8423,19.6221 542.2488,19.3523 Q541.6553,19.0825 541.0244,19.0825 Q539.6797,19.0825 538.9949,20.1492 Q538.3101,21.2158 538.3101,23.3159 Q538.3101,25.4077 538.9949,26.4744 Q539.6797,27.541 541.0244,27.541 Q541.6553,27.541 542.2488,27.2712 Q542.8423,27.0015 543.4731,26.4204 Z "/><text fill="#000000" font-family="sans-serif" font-size="12" lengthAdjust="spacingAndGlyphs" textLength="51" x="555" y="27.5352">TopicRef</text><line style="stroke: #A80036; stroke-width: 1.5;" x1="527" x2="608" y1="39" y2="39"/><text fill="#000000" font-family="sans-serif" font-size="11" lengthAdjust="spacingAndGlyphs" textLength="67" x="532" y="53.6348">gID realm_id</text><text fill="#000000" font-family="sans-serif" font-size="11" lengthAdjust="spacingAndGlyphs" textLength="62" x="532" y="66.5898">rID topic_id</text><line style="stroke: #A80036; stroke-width: 1.5;" x1="527" x2="608" y1="72.9102" y2="72.9102"/><!--MD5=[76720713d741c1b729a86cf9a3614322]
class Realm--><rect fill="#FEFECE" filter="url(#f15ytvsey3j1e)" height="86.8652" id="Realm" style="stroke: #A80036; stroke-width: 1.5;" width="224" x="455.5" y="161.5"/><ellipse cx="545.25" cy="177.5" fill="#ADD1B2" rx="11" ry="11" style="stroke: #A80036; stroke-width: 1.0;"/><path d="M547.7231,183.6431 Q547.1421,183.9419 546.5029,184.0913 Q545.8638,184.2407 545.1582,184.2407 Q542.6514,184.2407 541.3315,182.5889 Q540.0117,180.937 540.0117,177.8159 Q540.0117,174.6865 541.3315,173.0347 Q542.6514,171.3828 545.1582,171.3828 Q545.8638,171.3828 546.5112,171.5322 Q547.1587,171.6816 547.7231,171.9805 L547.7231,174.7031 Q547.0923,174.1221 546.4988,173.8523 Q545.9053,173.5825 545.2744,173.5825 Q543.9297,173.5825 543.2449,174.6492 Q542.5601,175.7158 542.5601,177.8159 Q542.5601,179.9077 543.2449,180.9744 Q543.9297,182.041 545.2744,182.041 Q545.9053,182.041 546.4988,181.7712 Q547.0923,181.5015 547.7231,180.9204 Z "/><text fill="#000000" font-family="sans-serif" font-size="12" lengthAdjust="spacingAndGlyphs" textLength="36" x="565.75" y="182.0352">Realm</text><line style="stroke: #A80036; stroke-width: 1.5;" x1="456.5" x2="678.5" y1="193.5" y2="193.5"/><text fill="#000000" font-family="sans-serif" font-size="11" lengthAdjust="spacingAndGlyphs" textLength="140" x="461.5" y="208.1348">Perspective[] perspectives</text><line style="stroke: #A80036; stroke-width: 1.5;" x1="456.5" x2="678.5" y1="214.4551" y2="214.4551"/><text fill="#000000" font-family="sans-serif" font-size="11" lengthAdjust="spacingAndGlyphs" textLength="212" x="461.5" y="229.0898">SituatedTopicRef[] findGlobalName(gID)</text><text fill="#000000" font-family="sans-serif" font-size="11" lengthAdjust="spacingAndGlyphs" textLength="204" x="461.5" y="242.0449">Perspective[] inPerspectives(TopicRef)</text><!--MD5=[6f2e8ab59d1b55315d8025ff78b98e0d]
class Perspective--><rect fill="#FEFECE" filter="url(#f15ytvsey3j1e)" height="242.3262" id="Perspective" style="stroke: #A80036; stroke-width: 1.5;" width="319" x="651" y="329"/><ellipse cx="773.25" cy="345" fill="#ADD1B2" rx="11" ry="11" style="stroke: #A80036; stroke-width: 1.0;"/><path d="M775.7231,351.1431 Q775.1421,351.4419 774.5029,351.5913 Q773.8638,351.7407 773.1582,351.7407 Q770.6514,351.7407 769.3315,350.0889 Q768.0117,348.437 768.0117,345.3159 Q768.0117,342.1865 769.3315,340.5347 Q770.6514,338.8828 773.1582,338.8828 Q773.8638,338.8828 774.5112,339.0322 Q775.1587,339.1816 775.7231,339.4805 L775.7231,342.2031 Q775.0923,341.6221 774.4988,341.3523 Q773.9053,341.0825 773.2744,341.0825 Q771.9297,341.0825 771.2449,342.1492 Q770.5601,343.2158 770.5601,345.3159 Q770.5601,347.4077 771.2449,348.4744 Q771.9297,349.541 773.2744,349.541 Q773.9053,349.541 774.4988,349.2712 Q775.0923,349.0015 775.7231,348.4204 Z "/><text fill="#000000" font-family="sans-serif" font-size="12" lengthAdjust="spacingAndGlyphs" textLength="66" x="793.75" y="349.5352">Perspective</text><line style="stroke: #A80036; stroke-width: 1.5;" x1="652" x2="969" y1="361" y2="361"/><text fill="#000000" font-family="sans-serif" font-size="11" lengthAdjust="spacingAndGlyphs" textLength="104" x="657" y="375.6348">Event[] eventQueue</text><text fill="#000000" font-family="sans-serif" font-size="11" lengthAdjust="spacingAndGlyphs" textLength="60" x="657" y="388.5898">rID[] topics</text><text fill="#000000" font-family="sans-serif" font-size="11" lengthAdjust="spacingAndGlyphs" textLength="257" x="657" y="401.5449">Map&lt;perspective_id, eID&gt; includedPerspectives</text><text fill="#000000" font-family="sans-serif" font-size="11" lengthAdjust="spacingAndGlyphs" textLength="78" x="657" y="414.5">eID lastEventId</text><text fill="#000000" font-family="sans-serif" font-size="11" lengthAdjust="spacingAndGlyphs" textLength="126" x="657" y="427.4551">Map&lt;gId, rID[]&gt; aliases</text><line style="stroke: #A80036; stroke-width: 1.5;" x1="652" x2="969" y1="433.7754" y2="433.7754"/><text fill="#000000" font-family="sans-serif" font-size="11" lengthAdjust="spacingAndGlyphs" textLength="184" x="657" y="448.4102">SituatedTopicRef situate(TopicRef)</text><text fill="#000000" font-family="sans-serif" font-size="11" lengthAdjust="spacingAndGlyphs" textLength="230" x="657" y="461.3652">FrozenTopicRef freeze(TopicRef, eID event)</text><text fill="#000000" font-family="sans-serif" font-size="11" lengthAdjust="spacingAndGlyphs" textLength="221" x="657" y="474.3203">Statement[] statements(SituatedTopicRef)</text><text fill="#000000" font-family="sans-serif" font-size="11" lengthAdjust="spacingAndGlyphs" textLength="260" x="657" y="487.2754">Statement[] refutedStatements(SituatedTopicRef)</text><text fill="#000000" font-family="sans-serif" font-size="11" lengthAdjust="spacingAndGlyphs" textLength="252" x="657" y="500.2305">Statement[] activeStatements(SituatedTopicRef)</text><text fill="#000000" font-family="sans-serif" font-size="11" lengthAdjust="spacingAndGlyphs" textLength="253" x="657" y="513.1855">TopicSnapshot makeSnapshot(FrozenTopicRef)</text><text fill="#000000" font-family="sans-serif" font-size="11" lengthAdjust="spacingAndGlyphs" textLength="254" x="657" y="526.1406">TopicSnapshot latestSnapshot(FrozenTopicRef)</text><text fill="#000000" font-family="sans-serif" font-size="11" lengthAdjust="spacingAndGlyphs" textLength="199" x="657" y="539.0957">TopicSnapshot makeCache(TopicRef)</text><text fill="#000000" font-family="sans-serif" font-size="11" lengthAdjust="spacingAndGlyphs" textLength="212" x="657" y="552.0508">SituatedTopicRef[] findGlobalName(gID)</text><text fill="#000000" font-family="sans-serif" font-size="11" lengthAdjust="spacingAndGlyphs" textLength="307" x="657" y="565.0059">TopicRef[] neighbourhood(SituatedTopicRef, SearchSpec)</text><!--MD5=[9277a38614413e975c96904f8e9039ca]
class RemoteRealmProxy--><rect fill="#FEFECE" filter="url(#f15ytvsey3j1e)" height="86.8652" id="RemoteRealmProxy" style="stroke: #A80036; stroke-width: 1.5;" width="404" x="211.5" y="406.5"/><ellipse cx="353.25" cy="422.5" fill="#ADD1B2" rx="11" ry="11" style="stroke: #A80036; stroke-width: 1.0;"/><path d="M355.7231,428.6431 Q355.1421,428.9419 354.5029,429.0913 Q353.8638,429.2407 353.1582,429.2407 Q350.6514,429.2407 349.3315,427.5889 Q348.0117,425.937 348.0117,422.8159 Q348.0117,419.6865 349.3315,418.0347 Q350.6514,416.3828 353.1582,416.3828 Q353.8638,416.3828 354.5112,416.5322 Q355.1587,416.6816 355.7231,416.9805 L355.7231,419.7031 Q355.0923,419.1221 354.4988,418.8523 Q353.9053,418.5825 353.2744,418.5825 Q351.9297,418.5825 351.2449,419.6492 Q350.5601,420.7158 350.5601,422.8159 Q350.5601,424.9077 351.2449,425.9744 Q351.9297,427.041 353.2744,427.041 Q353.9053,427.041 354.4988,426.7712 Q355.0923,426.5015 355.7231,425.9204 Z "/><text fill="#000000" font-family="sans-serif" font-size="12" lengthAdjust="spacingAndGlyphs" textLength="112" x="373.75" y="427.0352">RemoteRealmProxy</text><line style="stroke: #A80036; stroke-width: 1.5;" x1="212.5" x2="614.5" y1="438.5" y2="438.5"/><line style="stroke: #A80036; stroke-width: 1.5;" x1="212.5" x2="614.5" y1="446.5" y2="446.5"/><text fill="#000000" font-family="sans-serif" font-size="11" lengthAdjust="spacingAndGlyphs" textLength="274" x="217.5" y="461.1348">subscribeToTopics(rID perspective_id, rID[] topics)</text><text fill="#000000" font-family="sans-serif" font-size="11" lengthAdjust="spacingAndGlyphs" textLength="317" x="217.5" y="474.0898">subscribeToSearch(rID perspective_id, search_description)</text><text fill="#000000" font-family="sans-serif" font-size="11" lengthAdjust="spacingAndGlyphs" textLength="392" x="217.5" y="487.0449">MirrorPerspective mirror(rID perspective_id, rID[] topics, eID upToEvent?)</text><!--MD5=[ac13618b1a974308c1f12eb6c57723dc]
class Event--><rect fill="#FEFECE" filter="url(#f15ytvsey3j1e)" height="86.8652" id="Event" style="stroke: #A80036; stroke-width: 1.5;" width="136" x="1212.5" y="648"/><ellipse cx="1260.75" cy="664" fill="#ADD1B2" rx="11" ry="11" style="stroke: #A80036; stroke-width: 1.0;"/><path d="M1263.2231,670.1431 Q1262.6421,670.4419 1262.0029,670.5913 Q1261.3638,670.7407 1260.6582,670.7407 Q1258.1514,670.7407 1256.8315,669.0889 Q1255.5117,667.437 1255.5117,664.3159 Q1255.5117,661.1865 1256.8315,659.5347 Q1258.1514,657.8828 1260.6582,657.8828 Q1261.3638,657.8828 1262.0112,658.0322 Q1262.6587,658.1816 1263.2231,658.4805 L1263.2231,661.2031 Q1262.5923,660.6221 1261.9988,660.3523 Q1261.4053,660.0825 1260.7744,660.0825 Q1259.4297,660.0825 1258.7449,661.1492 Q1258.0601,662.2158 1258.0601,664.3159 Q1258.0601,666.4077 1258.7449,667.4744 Q1259.4297,668.541 1260.7744,668.541 Q1261.4053,668.541 1261.9988,668.2712 Q1262.5923,668.0015 1263.2231,667.4204 Z "/><text fill="#000000" font-family="sans-serif" font-size="12" lengthAdjust="spacingAndGlyphs" textLength="31" x="1281.25" y="668.5352">Event</text><line style="stroke: #A80036; stroke-width: 1.5;" x1="1213.5" x2="1347.5" y1="680" y2="680"/><text fill="#000000" font-family="sans-serif" font-size="11" lengthAdjust="spacingAndGlyphs" textLength="29" x="1218.5" y="694.6348">eId id</text><text fill="#000000" font-family="sans-serif" font-size="11" lengthAdjust="spacingAndGlyphs" textLength="124" x="1218.5" y="707.5898">bool endOfTransaction</text><text fill="#000000" font-family="sans-serif" font-size="11" lengthAdjust="spacingAndGlyphs" textLength="70" x="1218.5" y="720.5449">bool success</text><line style="stroke: #A80036; stroke-width: 1.5;" x1="1213.5" x2="1347.5" y1="726.8652" y2="726.8652"/><!--MD5=[5cb940d4fac3d6bd7f302e2e74d0b151]
class MirrorPerspective--><rect fill="#FEFECE" filter="url(#f15ytvsey3j1e)" height="60.9551" id="MirrorPerspective" style="stroke: #A80036; stroke-width: 1.5;" width="134" x="510.5" y="661"/><ellipse cx="525.95" cy="677" fill="#ADD1B2" rx="11" ry="11" style="stroke: #A80036; stroke-width: 1.0;"/><path d="M528.4231,683.1431 Q527.8421,683.4419 527.2029,683.5913 Q526.5638,683.7407 525.8582,683.7407 Q523.3514,683.7407 522.0315,682.0889 Q520.7117,680.437 520.7117,677.3159 Q520.7117,674.1865 522.0315,672.5347 Q523.3514,670.8828 525.8582,670.8828 Q526.5638,670.8828 527.2112,671.0322 Q527.8587,671.1816 528.4231,671.4805 L528.4231,674.2031 Q527.7923,673.6221 527.1988,673.3523 Q526.6053,673.0825 525.9744,673.0825 Q524.6297,673.0825 523.9449,674.1492 Q523.2601,675.2158 523.2601,677.3159 Q523.2601,679.4077 523.9449,680.4744 Q524.6297,681.541 525.9744,681.541 Q526.6053,681.541 527.1988,681.2712 Q527.7923,681.0015 528.4231,680.4204 Z "/><text fill="#000000" font-family="sans-serif" font-size="12" lengthAdjust="spacingAndGlyphs" textLength="101" x="540.05" y="681.5352">MirrorPerspective</text><line style="stroke: #A80036; stroke-width: 1.5;" x1="511.5" x2="643.5" y1="693" y2="693"/><line style="stroke: #A80036; stroke-width: 1.5;" x1="511.5" x2="643.5" y1="701" y2="701"/><text fill="#000000" font-family="sans-serif" font-size="11" lengthAdjust="spacingAndGlyphs" textLength="122" x="516.5" y="715.6348">update(eID upToEvent)</text><!--MD5=[a61a298976b7d1d94498f45c2ebfa10b]
class Statement--><rect fill="#FEFECE" filter="url(#f15ytvsey3j1e)" height="112.7754" id="Statement" style="stroke: #A80036; stroke-width: 1.5;" width="114" x="1401.5" y="796"/><ellipse cx="1427.75" cy="812" fill="#ADD1B2" rx="11" ry="11" style="stroke: #A80036; stroke-width: 1.0;"/><path d="M1430.2231,818.1431 Q1429.6421,818.4419 1429.0029,818.5913 Q1428.3638,818.7407 1427.6582,818.7407 Q1425.1514,818.7407 1423.8315,817.0889 Q1422.5117,815.437 1422.5117,812.3159 Q1422.5117,809.1865 1423.8315,807.5347 Q1425.1514,805.8828 1427.6582,805.8828 Q1428.3638,805.8828 1429.0112,806.0322 Q1429.6587,806.1816 1430.2231,806.4805 L1430.2231,809.2031 Q1429.5923,808.6221 1428.9988,808.3523 Q1428.4053,808.0825 1427.7744,808.0825 Q1426.4297,808.0825 1425.7449,809.1492 Q1425.0601,810.2158 1425.0601,812.3159 Q1425.0601,814.4077 1425.7449,815.4744 Q1426.4297,816.541 1427.7744,816.541 Q1428.4053,816.541 1428.9988,816.2712 Q1429.5923,816.0015 1430.2231,815.4204 Z "/><text fill="#000000" font-family="sans-serif" font-size="12" lengthAdjust="spacingAndGlyphs" textLength="57" x="1444.25" y="816.5352">Statement</text><line style="stroke: #A80036; stroke-width: 1.5;" x1="1402.5" x2="1514.5" y1="828" y2="828"/><text fill="#000000" font-family="sans-serif" font-size="11" lengthAdjust="spacingAndGlyphs" textLength="102" x="1407.5" y="842.6348">Statement[] refutes</text><text fill="#000000" font-family="sans-serif" font-size="11" lengthAdjust="spacingAndGlyphs" textLength="89" x="1407.5" y="855.5898">TopicRef creator</text><text fill="#000000" font-family="sans-serif" font-size="11" lengthAdjust="spacingAndGlyphs" textLength="86" x="1407.5" y="868.5449">TopicRef author</text><text fill="#000000" font-family="sans-serif" font-size="11" lengthAdjust="spacingAndGlyphs" textLength="74" x="1407.5" y="881.5">certainty float</text><text fill="#000000" font-family="sans-serif" font-size="11" lengthAdjust="spacingAndGlyphs" textLength="89" x="1407.5" y="894.4551">TopicRef subject</text><line style="stroke: #A80036; stroke-width: 1.5;" x1="1402.5" x2="1514.5" y1="900.7754" y2="900.7754"/><!--MD5=[65986cbf051ec537cf267ab5d01e046d]
class CompositeEvent--><rect fill="#FEFECE" filter="url(#f15ytvsey3j1e)" height="48" id="CompositeEvent" style="stroke: #A80036; stroke-width: 1.5;" width="124" x="1388.5" y="426"/><ellipse cx="1403.5" cy="442" fill="#ADD1B2" rx="11" ry="11" style="stroke: #A80036; stroke-width: 1.0;"/><path d="M1405.9731,448.1431 Q1405.3921,448.4419 1404.7529,448.5913 Q1404.1138,448.7407 1403.4082,448.7407 Q1400.9014,448.7407 1399.5815,447.0889 Q1398.2617,445.437 1398.2617,442.3159 Q1398.2617,439.1865 1399.5815,437.5347 Q1400.9014,435.8828 1403.4082,435.8828 Q1404.1138,435.8828 1404.7612,436.0322 Q1405.4087,436.1816 1405.9731,436.4805 L1405.9731,439.2031 Q1405.3423,438.6221 1404.7488,438.3523 Q1404.1553,438.0825 1403.5244,438.0825 Q1402.1797,438.0825 1401.4949,439.1492 Q1400.8101,440.2158 1400.8101,442.3159 Q1400.8101,444.4077 1401.4949,445.4744 Q1402.1797,446.541 1403.5244,446.541 Q1404.1553,446.541 1404.7488,446.2712 Q1405.3423,446.0015 1405.9731,445.4204 Z "/><text fill="#000000" font-family="sans-serif" font-size="12" lengthAdjust="spacingAndGlyphs" textLength="92" x="1417.5" y="446.5352">CompositeEvent</text><line style="stroke: #A80036; stroke-width: 1.5;" x1="1389.5" x2="1511.5" y1="458" y2="458"/><line style="stroke: #A80036; stroke-width: 1.5;" x1="1389.5" x2="1511.5" y1="466" y2="466"/><!--MD5=[044451e5646fc2abafbe645abe398be2]
class SnapshotEvent--><rect fill="#FEFECE" filter="url(#f15ytvsey3j1e)" height="48" id="SnapshotEvent" style="stroke: #A80036; stroke-width: 1.5;" width="115" x="1151" y="828.5"/><ellipse cx="1166" cy="844.5" fill="#ADD1B2" rx="11" ry="11" style="stroke: #A80036; stroke-width: 1.0;"/><path d="M1168.4731,850.6431 Q1167.8921,850.9419 1167.2529,851.0913 Q1166.6138,851.2407 1165.9082,851.2407 Q1163.4014,851.2407 1162.0815,849.5889 Q1160.7617,847.937 1160.7617,844.8159 Q1160.7617,841.6865 1162.0815,840.0347 Q1163.4014,838.3828 1165.9082,838.3828 Q1166.6138,838.3828 1167.2612,838.5322 Q1167.9087,838.6816 1168.4731,838.9805 L1168.4731,841.7031 Q1167.8423,841.1221 1167.2488,840.8523 Q1166.6553,840.5825 1166.0244,840.5825 Q1164.6797,840.5825 1163.9949,841.6492 Q1163.3101,842.7158 1163.3101,844.8159 Q1163.3101,846.9077 1163.9949,847.9744 Q1164.6797,849.041 1166.0244,849.041 Q1166.6553,849.041 1167.2488,848.7712 Q1167.8423,848.5015 1168.4731,847.9204 Z "/><text fill="#000000" font-family="sans-serif" font-size="12" lengthAdjust="spacingAndGlyphs" textLength="83" x="1180" y="849.0352">SnapshotEvent</text><line style="stroke: #A80036; stroke-width: 1.5;" x1="1152" x2="1265" y1="860.5" y2="860.5"/><line style="stroke: #A80036; stroke-width: 1.5;" x1="1152" x2="1265" y1="868.5" y2="868.5"/><!--MD5=[52d03122a15073198b6c40eadc34bb29]
class TopicSnapshot--><rect fill="#FEFECE" filter="url(#f15ytvsey3j1e)" height="86.8652" id="TopicSnapshot" style="stroke: #A80036; stroke-width: 1.5;" width="120" x="1057.5" y="648"/><ellipse cx="1074.3" cy="664" fill="#ADD1B2" rx="11" ry="11" style="stroke: #A80036; stroke-width: 1.0;"/><path d="M1076.7731,670.1431 Q1076.1921,670.4419 1075.5529,670.5913 Q1074.9138,670.7407 1074.2082,670.7407 Q1071.7014,670.7407 1070.3815,669.0889 Q1069.0617,667.437 1069.0617,664.3159 Q1069.0617,661.1865 1070.3815,659.5347 Q1071.7014,657.8828 1074.2082,657.8828 Q1074.9138,657.8828 1075.5612,658.0322 Q1076.2087,658.1816 1076.7731,658.4805 L1076.7731,661.2031 Q1076.1423,660.6221 1075.5488,660.3523 Q1074.9553,660.0825 1074.3244,660.0825 Q1072.9797,660.0825 1072.2949,661.1492 Q1071.6101,662.2158 1071.6101,664.3159 Q1071.6101,666.4077 1072.2949,667.4744 Q1072.9797,668.541 1074.3244,668.541 Q1074.9553,668.541 1075.5488,668.2712 Q1076.1423,668.0015 1076.7731,667.4204 Z "/><text fill="#000000" font-family="sans-serif" font-size="12" lengthAdjust="spacingAndGlyphs" textLength="84" x="1088.7" y="668.5352">TopicSnapshot</text><line style="stroke: #A80036; stroke-width: 1.5;" x1="1058.5" x2="1176.5" y1="680" y2="680"/><text fill="#000000" font-family="sans-serif" font-size="11" lengthAdjust="spacingAndGlyphs" textLength="102" x="1063.5" y="694.6348">FrozenTopicRef ref</text><text fill="#000000" font-family="sans-serif" font-size="11" lengthAdjust="spacingAndGlyphs" textLength="108" x="1063.5" y="707.5898">JSON representation</text><text fill="#000000" font-family="sans-serif" font-size="11" lengthAdjust="spacingAndGlyphs" textLength="39" x="1063.5" y="720.5449">id hash</text><line style="stroke: #A80036; stroke-width: 1.5;" x1="1058.5" x2="1176.5" y1="726.8652" y2="726.8652"/><!--MD5=[54cef620d4a312fec929e136c0c7087b]
class PropertyValue--><rect fill="#FEFECE" filter="url(#f15ytvsey3j1e)" height="73.9102" id="PropertyValue" style="stroke: #A80036; stroke-width: 1.5;" width="116" x="249.5" y="970"/><ellipse cx="265.85" cy="986" fill="#ADD1B2" rx="11" ry="11" style="stroke: #A80036; stroke-width: 1.0;"/><path d="M268.3231,992.1431 Q267.7421,992.4419 267.1029,992.5913 Q266.4638,992.7407 265.7582,992.7407 Q263.2514,992.7407 261.9315,991.0889 Q260.6117,989.437 260.6117,986.3159 Q260.6117,983.1865 261.9315,981.5347 Q263.2514,979.8828 265.7582,979.8828 Q266.4638,979.8828 267.1112,980.0322 Q267.7587,980.1816 268.3231,980.4805 L268.3231,983.2031 Q267.6923,982.6221 267.0988,982.3523 Q266.5053,982.0825 265.8744,982.0825 Q264.5297,982.0825 263.8449,983.1492 Q263.1601,984.2158 263.1601,986.3159 Q263.1601,988.4077 263.8449,989.4744 Q264.5297,990.541 265.8744,990.541 Q266.5053,990.541 267.0988,990.2712 Q267.6923,990.0015 268.3231,989.4204 Z "/><text fill="#000000" font-family="sans-serif" font-size="12" lengthAdjust="spacingAndGlyphs" textLength="81" x="280.15" y="990.5352">PropertyValue</text><line style="stroke: #A80036; stroke-width: 1.5;" x1="250.5" x2="364.5" y1="1002" y2="1002"/><text fill="#000000" font-family="sans-serif" font-size="11" lengthAdjust="spacingAndGlyphs" textLength="104" x="255.5" y="1016.6348">boolean exhaustive</text><text fill="#000000" font-family="sans-serif" font-size="11" lengthAdjust="spacingAndGlyphs" textLength="76" x="255.5" y="1029.5898">TopicRef prop</text><line style="stroke: #A80036; stroke-width: 1.5;" x1="250.5" x2="364.5" y1="1035.9102" y2="1035.9102"/><!--MD5=[1805f7917e745185cc6c6faad86d7b5e]
class PropertyValueCollection--><rect fill="#FEFECE" filter="url(#f15ytvsey3j1e)" height="86.8652" id="PropertyValueCollection" style="stroke: #A80036; stroke-width: 1.5;" width="168" x="127.5" y="1105"/><ellipse cx="142.5" cy="1121" fill="#ADD1B2" rx="11" ry="11" style="stroke: #A80036; stroke-width: 1.0;"/><path d="M144.9731,1127.1431 Q144.3921,1127.4419 143.7529,1127.5913 Q143.1138,1127.7407 142.4082,1127.7407 Q139.9014,1127.7407 138.5815,1126.0889 Q137.2617,1124.437 137.2617,1121.3159 Q137.2617,1118.1865 138.5815,1116.5347 Q139.9014,1114.8828 142.4082,1114.8828 Q143.1138,1114.8828 143.7612,1115.0322 Q144.4087,1115.1816 144.9731,1115.4805 L144.9731,1118.2031 Q144.3423,1117.6221 143.7488,1117.3523 Q143.1553,1117.0825 142.5244,1117.0825 Q141.1797,1117.0825 140.4949,1118.1492 Q139.8101,1119.2158 139.8101,1121.3159 Q139.8101,1123.4077 140.4949,1124.4744 Q141.1797,1125.541 142.5244,1125.541 Q143.1553,1125.541 143.7488,1125.2712 Q144.3423,1125.0015 144.9731,1124.4204 Z "/><text fill="#000000" font-family="sans-serif" font-size="12" lengthAdjust="spacingAndGlyphs" textLength="136" x="156.5" y="1125.5352">PropertyValueCollection</text><line style="stroke: #A80036; stroke-width: 1.5;" x1="128.5" x2="294.5" y1="1137" y2="1137"/><text fill="#000000" font-family="sans-serif" font-size="11" lengthAdjust="spacingAndGlyphs" textLength="111" x="133.5" y="1151.6348">QuerySpec intension</text><text fill="#000000" font-family="sans-serif" font-size="11" lengthAdjust="spacingAndGlyphs" textLength="123" x="133.5" y="1164.5898">ValueTopic[] extension</text><text fill="#000000" font-family="sans-serif" font-size="11" lengthAdjust="spacingAndGlyphs" textLength="89" x="133.5" y="1177.5449">boolean ordered</text><line style="stroke: #A80036; stroke-width: 1.5;" x1="128.5" x2="294.5" y1="1183.8652" y2="1183.8652"/><!--MD5=[788d9534349a72a54684473dfa47a231]
class SinglePropertyValue--><rect fill="#FEFECE" filter="url(#f15ytvsey3j1e)" height="48" id="SinglePropertyValue" style="stroke: #A80036; stroke-width: 1.5;" width="146" x="330.5" y="1124.5"/><ellipse cx="345.5" cy="1140.5" fill="#ADD1B2" rx="11" ry="11" style="stroke: #A80036; stroke-width: 1.0;"/><path d="M347.9731,1146.6431 Q347.3921,1146.9419 346.7529,1147.0913 Q346.1138,1147.2407 345.4082,1147.2407 Q342.9014,1147.2407 341.5815,1145.5889 Q340.2617,1143.937 340.2617,1140.8159 Q340.2617,1137.6865 341.5815,1136.0347 Q342.9014,1134.3828 345.4082,1134.3828 Q346.1138,1134.3828 346.7612,1134.5322 Q347.4087,1134.6816 347.9731,1134.9805 L347.9731,1137.7031 Q347.3423,1137.1221 346.7488,1136.8523 Q346.1553,1136.5825 345.5244,1136.5825 Q344.1797,1136.5825 343.4949,1137.6492 Q342.8101,1138.7158 342.8101,1140.8159 Q342.8101,1142.9077 343.4949,1143.9744 Q344.1797,1145.041 345.5244,1145.041 Q346.1553,1145.041 346.7488,1144.7712 Q347.3423,1144.5015 347.9731,1143.9204 Z "/><text fill="#000000" font-family="sans-serif" font-size="12" lengthAdjust="spacingAndGlyphs" textLength="114" x="359.5" y="1145.0352">SinglePropertyValue</text><line style="stroke: #A80036; stroke-width: 1.5;" x1="331.5" x2="475.5" y1="1156.5" y2="1156.5"/><line style="stroke: #A80036; stroke-width: 1.5;" x1="331.5" x2="475.5" y1="1164.5" y2="1164.5"/><!--MD5=[1c1270143de1515a5dc57fd20c819ec4]
class ValueTopic--><rect fill="#FEFECE" filter="url(#f15ytvsey3j1e)" height="48" id="ValueTopic" style="stroke: #A80036; stroke-width: 1.5;" width="96" x="174.5" y="1253"/><ellipse cx="189.5" cy="1269" fill="#ADD1B2" rx="11" ry="11" style="stroke: #A80036; stroke-width: 1.0;"/><path d="M191.9731,1275.1431 Q191.3921,1275.4419 190.7529,1275.5913 Q190.1138,1275.7407 189.4082,1275.7407 Q186.9014,1275.7407 185.5815,1274.0889 Q184.2617,1272.437 184.2617,1269.3159 Q184.2617,1266.1865 185.5815,1264.5347 Q186.9014,1262.8828 189.4082,1262.8828 Q190.1138,1262.8828 190.7612,1263.0322 Q191.4087,1263.1816 191.9731,1263.4805 L191.9731,1266.2031 Q191.3423,1265.6221 190.7488,1265.3523 Q190.1553,1265.0825 189.5244,1265.0825 Q188.1797,1265.0825 187.4949,1266.1492 Q186.8101,1267.2158 186.8101,1269.3159 Q186.8101,1271.4077 187.4949,1272.4744 Q188.1797,1273.541 189.5244,1273.541 Q190.1553,1273.541 190.7488,1273.2712 Q191.3423,1273.0015 191.9731,1272.4204 Z "/><text fill="#000000" font-family="sans-serif" font-size="12" lengthAdjust="spacingAndGlyphs" textLength="64" x="203.5" y="1273.5352">ValueTopic</text><line style="stroke: #A80036; stroke-width: 1.5;" x1="175.5" x2="269.5" y1="1285" y2="1285"/><line style="stroke: #A80036; stroke-width: 1.5;" x1="175.5" x2="269.5" y1="1293" y2="1293"/><!--MD5=[6fac7eb370424ad3b32b81807fed5382]
class RefValueTopic--><rect fill="#FEFECE" filter="url(#f15ytvsey3j1e)" height="60.9551" id="RefValueTopic" style="stroke: #A80036; stroke-width: 1.5;" width="115" x="7" y="1368.5"/><ellipse cx="22" cy="1384.5" fill="#ADD1B2" rx="11" ry="11" style="stroke: #A80036; stroke-width: 1.0;"/><path d="M24.4731,1390.6431 Q23.8921,1390.9419 23.2529,1391.0913 Q22.6138,1391.2407 21.9082,1391.2407 Q19.4014,1391.2407 18.0815,1389.5889 Q16.7617,1387.937 16.7617,1384.8159 Q16.7617,1381.6865 18.0815,1380.0347 Q19.4014,1378.3828 21.9082,1378.3828 Q22.6138,1378.3828 23.2612,1378.5322 Q23.9087,1378.6816 24.4731,1378.9805 L24.4731,1381.7031 Q23.8423,1381.1221 23.2488,1380.8523 Q22.6553,1380.5825 22.0244,1380.5825 Q20.6797,1380.5825 19.9949,1381.6492 Q19.3101,1382.7158 19.3101,1384.8159 Q19.3101,1386.9077 19.9949,1387.9744 Q20.6797,1389.041 22.0244,1389.041 Q22.6553,1389.041 23.2488,1388.7712 Q23.8423,1388.5015 24.4731,1387.9204 Z "/><text fill="#000000" font-family="sans-serif" font-size="12" lengthAdjust="spacingAndGlyphs" textLength="83" x="36" y="1389.0352">RefValueTopic</text><line style="stroke: #A80036; stroke-width: 1.5;" x1="8" x2="121" y1="1400.5" y2="1400.5"/><text fill="#000000" font-family="sans-serif" font-size="11" lengthAdjust="spacingAndGlyphs" textLength="82" x="13" y="1415.1348">TopicRef target</text><line style="stroke: #A80036; stroke-width: 1.5;" x1="8" x2="121" y1="1421.4551" y2="1421.4551"/><!--MD5=[0ed12f6a0ed52b16327b501f1ad88751]
class LiteralValueTopic--><rect fill="#FEFECE" filter="url(#f15ytvsey3j1e)" height="73.9102" id="LiteralValueTopic" style="stroke: #A80036; stroke-width: 1.5;" width="131" x="157" y="1362"/><ellipse cx="172" cy="1378" fill="#ADD1B2" rx="11" ry="11" style="stroke: #A80036; stroke-width: 1.0;"/><path d="M174.4731,1384.1431 Q173.8921,1384.4419 173.2529,1384.5913 Q172.6138,1384.7407 171.9082,1384.7407 Q169.4014,1384.7407 168.0815,1383.0889 Q166.7617,1381.437 166.7617,1378.3159 Q166.7617,1375.1865 168.0815,1373.5347 Q169.4014,1371.8828 171.9082,1371.8828 Q172.6138,1371.8828 173.2612,1372.0322 Q173.9087,1372.1816 174.4731,1372.4805 L174.4731,1375.2031 Q173.8423,1374.6221 173.2488,1374.3523 Q172.6553,1374.0825 172.0244,1374.0825 Q170.6797,1374.0825 169.9949,1375.1492 Q169.3101,1376.2158 169.3101,1378.3159 Q169.3101,1380.4077 169.9949,1381.4744 Q170.6797,1382.541 172.0244,1382.541 Q172.6553,1382.541 173.2488,1382.2712 Q173.8423,1382.0015 174.4731,1381.4204 Z "/><text fill="#000000" font-family="sans-serif" font-size="12" lengthAdjust="spacingAndGlyphs" textLength="99" x="186" y="1382.5352">LiteralValueTopic</text><line style="stroke: #A80036; stroke-width: 1.5;" x1="158" x2="287" y1="1394" y2="1394"/><text fill="#000000" font-family="sans-serif" font-size="11" lengthAdjust="spacingAndGlyphs" textLength="57" x="163" y="1408.6348">JSON value</text><text fill="#000000" font-family="sans-serif" font-size="11" lengthAdjust="spacingAndGlyphs" textLength="89" x="163" y="1421.5898">boolean mutable</text><line style="stroke: #A80036; stroke-width: 1.5;" x1="158" x2="287" y1="1427.9102" y2="1427.9102"/><!--MD5=[b445a9578816887a6c08cdcb06a880bf]
class VolatileRefTopic--><rect fill="#FEFECE" filter="url(#f15ytvsey3j1e)" height="60.9551" id="VolatileRefTopic" style="stroke: #A80036; stroke-width: 1.5;" width="125" x="323" y="1368.5"/><ellipse cx="338" cy="1384.5" fill="#ADD1B2" rx="11" ry="11" style="stroke: #A80036; stroke-width: 1.0;"/><path d="M340.4731,1390.6431 Q339.8921,1390.9419 339.2529,1391.0913 Q338.6138,1391.2407 337.9082,1391.2407 Q335.4014,1391.2407 334.0815,1389.5889 Q332.7617,1387.937 332.7617,1384.8159 Q332.7617,1381.6865 334.0815,1380.0347 Q335.4014,1378.3828 337.9082,1378.3828 Q338.6138,1378.3828 339.2612,1378.5322 Q339.9087,1378.6816 340.4731,1378.9805 L340.4731,1381.7031 Q339.8423,1381.1221 339.2488,1380.8523 Q338.6553,1380.5825 338.0244,1380.5825 Q336.6797,1380.5825 335.9949,1381.6492 Q335.3101,1382.7158 335.3101,1384.8159 Q335.3101,1386.9077 335.9949,1387.9744 Q336.6797,1389.041 338.0244,1389.041 Q338.6553,1389.041 339.2488,1388.7712 Q339.8423,1388.5015 340.4731,1387.9204 Z "/><text fill="#000000" font-family="sans-serif" font-size="12" lengthAdjust="spacingAndGlyphs" textLength="93" x="352" y="1389.0352">VolatileRefTopic</text><line style="stroke: #A80036; stroke-width: 1.5;" x1="324" x2="447" y1="1400.5" y2="1400.5"/><text fill="#000000" font-family="sans-serif" font-size="11" lengthAdjust="spacingAndGlyphs" textLength="52" x="329" y="1415.1348">URL value</text><line style="stroke: #A80036; stroke-width: 1.5;" x1="324" x2="447" y1="1421.4551" y2="1421.4551"/><!--MD5=[975db57e3e4458d9dd3484dcf98f3256]
class CompositeStatement--><rect fill="#FEFECE" filter="url(#f15ytvsey3j1e)" height="48" id="CompositeStatement" style="stroke: #A80036; stroke-width: 1.5;" width="150" x="1383.5" y="667.5"/><ellipse cx="1398.5" cy="683.5" fill="#ADD1B2" rx="11" ry="11" style="stroke: #A80036; stroke-width: 1.0;"/><path d="M1400.9731,689.6431 Q1400.3921,689.9419 1399.7529,690.0913 Q1399.1138,690.2407 1398.4082,690.2407 Q1395.9014,690.2407 1394.5815,688.5889 Q1393.2617,686.937 1393.2617,683.8159 Q1393.2617,680.6865 1394.5815,679.0347 Q1395.9014,677.3828 1398.4082,677.3828 Q1399.1138,677.3828 1399.7612,677.5322 Q1400.4087,677.6816 1400.9731,677.9805 L1400.9731,680.7031 Q1400.3423,680.1221 1399.7488,679.8523 Q1399.1553,679.5825 1398.5244,679.5825 Q1397.1797,679.5825 1396.4949,680.6492 Q1395.8101,681.7158 1395.8101,683.8159 Q1395.8101,685.9077 1396.4949,686.9744 Q1397.1797,688.041 1398.5244,688.041 Q1399.1553,688.041 1399.7488,687.7712 Q1400.3423,687.5015 1400.9731,686.9204 Z "/><text fill="#000000" font-family="sans-serif" font-size="12" lengthAdjust="spacingAndGlyphs" textLength="118" x="1412.5" y="688.0352">CompositeStatement</text><line style="stroke: #A80036; stroke-width: 1.5;" x1="1384.5" x2="1532.5" y1="699.5" y2="699.5"/><line style="stroke: #A80036; stroke-width: 1.5;" x1="1384.5" x2="1532.5" y1="707.5" y2="707.5"/><!--MD5=[f846f872be8269b26371a353e26be0de]
class SituatedTopicRef--><rect fill="#FEFECE" filter="url(#f15ytvsey3j1e)" height="60.9551" id="SituatedTopicRef" style="stroke: #A80036; stroke-width: 1.5;" width="129" x="1114" y="174.5"/><ellipse cx="1129" cy="190.5" fill="#ADD1B2" rx="11" ry="11" style="stroke: #A80036; stroke-width: 1.0;"/><path d="M1131.4731,196.6431 Q1130.8921,196.9419 1130.2529,197.0913 Q1129.6138,197.2407 1128.9082,197.2407 Q1126.4014,197.2407 1125.0815,195.5889 Q1123.7617,193.937 1123.7617,190.8159 Q1123.7617,187.6865 1125.0815,186.0347 Q1126.4014,184.3828 1128.9082,184.3828 Q1129.6138,184.3828 1130.2612,184.5322 Q1130.9087,184.6816 1131.4731,184.9805 L1131.4731,187.7031 Q1130.8423,187.1221 1130.2488,186.8523 Q1129.6553,186.5825 1129.0244,186.5825 Q1127.6797,186.5825 1126.9949,187.6492 Q1126.3101,188.7158 1126.3101,190.8159 Q1126.3101,192.9077 1126.9949,193.9744 Q1127.6797,195.041 1129.0244,195.041 Q1129.6553,195.041 1130.2488,194.7712 Q1130.8423,194.5015 1131.4731,193.9204 Z "/><text fill="#000000" font-family="sans-serif" font-size="12" lengthAdjust="spacingAndGlyphs" textLength="97" x="1143" y="195.0352">SituatedTopicRef</text><line style="stroke: #A80036; stroke-width: 1.5;" x1="1115" x2="1242" y1="206.5" y2="206.5"/><text fill="#000000" font-family="sans-serif" font-size="11" lengthAdjust="spacingAndGlyphs" textLength="97" x="1120" y="221.1348">rID perspective_id</text><line style="stroke: #A80036; stroke-width: 1.5;" x1="1115" x2="1242" y1="227.4551" y2="227.4551"/><!--MD5=[f95a07572ce931d9ce655ceae955e2eb]
class FrozenTopicRef--><rect fill="#FEFECE" filter="url(#f15ytvsey3j1e)" height="60.9551" id="FrozenTopicRef" style="stroke: #A80036; stroke-width: 1.5;" width="122" x="1231.5" y="419.5"/><ellipse cx="1246.5" cy="435.5" fill="#ADD1B2" rx="11" ry="11" style="stroke: #A80036; stroke-width: 1.0;"/><path d="M1248.9731,441.6431 Q1248.3921,441.9419 1247.7529,442.0913 Q1247.1138,442.2407 1246.4082,442.2407 Q1243.9014,442.2407 1242.5815,440.5889 Q1241.2617,438.937 1241.2617,435.8159 Q1241.2617,432.6865 1242.5815,431.0347 Q1243.9014,429.3828 1246.4082,429.3828 Q1247.1138,429.3828 1247.7612,429.5322 Q1248.4087,429.6816 1248.9731,429.9805 L1248.9731,432.7031 Q1248.3423,432.1221 1247.7488,431.8523 Q1247.1553,431.5825 1246.5244,431.5825 Q1245.1797,431.5825 1244.4949,432.6492 Q1243.8101,433.7158 1243.8101,435.8159 Q1243.8101,437.9077 1244.4949,438.9744 Q1245.1797,440.041 1246.5244,440.041 Q1247.1553,440.041 1247.7488,439.7712 Q1248.3423,439.5015 1248.9731,438.9204 Z "/><text fill="#000000" font-family="sans-serif" font-size="12" lengthAdjust="spacingAndGlyphs" textLength="90" x="1260.5" y="440.0352">FrozenTopicRef</text><line style="stroke: #A80036; stroke-width: 1.5;" x1="1232.5" x2="1352.5" y1="451.5" y2="451.5"/><text fill="#000000" font-family="sans-serif" font-size="11" lengthAdjust="spacingAndGlyphs" textLength="65" x="1237.5" y="466.1348">eID event_id</text><line style="stroke: #A80036; stroke-width: 1.5;" x1="1232.5" x2="1352.5" y1="472.4551" y2="472.4551"/><!--MD5=[2724e7d95b75fb207181cd23d255688b]
class AbstractTopicCache--><rect fill="#FEFECE" filter="url(#f15ytvsey3j1e)" height="125.7305" id="AbstractTopicCache" style="stroke: #A80036; stroke-width: 1.5;" width="174" x="904.5" y="142"/><ellipse cx="931.65" cy="158" fill="#A9DCDF" rx="11" ry="11" style="stroke: #A80036; stroke-width: 1.0;"/><path d="M931.7633,153.5981 L930.6095,158.6699 L932.9254,158.6699 Z M930.2691,151.3569 L933.2657,151.3569 L936.6109,163.75 L934.1622,163.75 L933.3985,160.687 L930.1197,160.687 L929.3727,163.75 L926.9239,163.75 Z "/><text fill="#000000" font-family="sans-serif" font-size="12" font-style="italic" lengthAdjust="spacingAndGlyphs" textLength="115" x="948.35" y="162.5352">AbstractTopicCache</text><line style="stroke: #A80036; stroke-width: 1.5;" x1="905.5" x2="1077.5" y1="174" y2="174"/><text fill="#000000" font-family="sans-serif" font-size="11" lengthAdjust="spacingAndGlyphs" textLength="123" x="910.5" y="188.6348">Statement[] statements</text><text fill="#000000" font-family="sans-serif" font-size="11" lengthAdjust="spacingAndGlyphs" textLength="162" x="910.5" y="201.5898">Statement[] refutedStatements</text><text fill="#000000" font-family="sans-serif" font-size="11" lengthAdjust="spacingAndGlyphs" textLength="65" x="910.5" y="214.5449">gID[] aliases</text><text fill="#000000" font-family="sans-serif" font-size="11" lengthAdjust="spacingAndGlyphs" textLength="144" x="910.5" y="227.5">SituatedTopicRef[] sources</text><line style="stroke: #A80036; stroke-width: 1.5;" x1="905.5" x2="1077.5" y1="233.8203" y2="233.8203"/><text fill="#000000" font-family="sans-serif" font-size="11" lengthAdjust="spacingAndGlyphs" textLength="162" x="910.5" y="248.4551">Statement[] activeStatements()</text><text fill="#000000" font-family="sans-serif" font-size="11" lengthAdjust="spacingAndGlyphs" textLength="162" x="910.5" y="261.4102">SituatedTopicRef mergeHead()</text><!--MD5=[e9cb60f9b22d2e0c6ac4f426379d2033]
class TopicCache--><rect fill="#FEFECE" filter="url(#f15ytvsey3j1e)" height="73.9102" id="TopicCache" style="stroke: #A80036; stroke-width: 1.5;" width="120" x="1076.5" y="413"/><ellipse cx="1100.95" cy="429" fill="#ADD1B2" rx="11" ry="11" style="stroke: #A80036; stroke-width: 1.0;"/><path d="M1103.4231,435.1431 Q1102.8421,435.4419 1102.2029,435.5913 Q1101.5638,435.7407 1100.8582,435.7407 Q1098.3514,435.7407 1097.0315,434.0889 Q1095.7117,432.437 1095.7117,429.3159 Q1095.7117,426.1865 1097.0315,424.5347 Q1098.3514,422.8828 1100.8582,422.8828 Q1101.5638,422.8828 1102.2112,423.0322 Q1102.8587,423.1816 1103.4231,423.4805 L1103.4231,426.2031 Q1102.7923,425.6221 1102.1988,425.3523 Q1101.6053,425.0825 1100.9744,425.0825 Q1099.6297,425.0825 1098.9449,426.1492 Q1098.2601,427.2158 1098.2601,429.3159 Q1098.2601,431.4077 1098.9449,432.4744 Q1099.6297,433.541 1100.9744,433.541 Q1101.6053,433.541 1102.1988,433.2712 Q1102.7923,433.0015 1103.4231,432.4204 Z "/><text fill="#000000" font-family="sans-serif" font-size="12" lengthAdjust="spacingAndGlyphs" textLength="67" x="1117.05" y="433.5352">TopicCache</text><line style="stroke: #A80036; stroke-width: 1.5;" x1="1077.5" x2="1195.5" y1="445" y2="445"/><text fill="#000000" font-family="sans-serif" font-size="11" lengthAdjust="spacingAndGlyphs" textLength="108" x="1082.5" y="459.6348">SituatedTopicRef ref</text><line style="stroke: #A80036; stroke-width: 1.5;" x1="1077.5" x2="1195.5" y1="465.9551" y2="465.9551"/><text fill="#000000" font-family="sans-serif" font-size="11" lengthAdjust="spacingAndGlyphs" textLength="45" x="1082.5" y="480.5898">update()</text><!--MD5=[389d0203e93624b4d79a52b0b23c3369]
link TopicRef to Realm--><path d="M567.5,81.08 C567.5,103.32 567.5,132.1 567.5,156.22 " fill="none" id="TopicRef-&gt;Realm" style="stroke: #A80036; stroke-width: 1.0;"/><polygon fill="#A80036" points="567.5,161.29,571.5,152.29,567.5,156.29,563.5,152.29,567.5,161.29" style="stroke: #A80036; stroke-width: 1.0;"/><!--MD5=[e75a0a100eeb8defbb805e7e35833390]
link Realm to Perspective--><path d="M618.5953,257.0953 C618.5953,257.0953 659.16,297.66 680.98,319.48 " fill="none" id="Realm-Perspective" style="stroke: #A80036; stroke-width: 1.0;"/><polygon fill="#A80036" points="690.34,328.84,686.8045,319.6476,686.8045,325.3045,681.1476,325.3045,690.34,328.84" style="stroke: #A80036; stroke-width: 1.0;"/><line style="stroke: #A80036; stroke-width: 1.0;" x1="686.8045" x2="681.145" y1="325.3045" y2="319.645"/><polygon fill="#A80036" points="610.11,248.61,611.5242,255.6811,618.5953,257.0953,617.1811,250.0242,610.11,248.61" style="stroke: #A80036; stroke-width: 1.0;"/><text fill="#000000" font-family="sans-serif" font-size="13" lengthAdjust="spacingAndGlyphs" textLength="8" x="608.0222" y="269.0387">1</text><text fill="#000000" font-family="sans-serif" font-size="13" lengthAdjust="spacingAndGlyphs" textLength="6" x="676.4501" y="318.1656">*</text><!--MD5=[e053e8e53f0f1b0aa8868075badcc954]
reverse link Realm to RemoteRealmProxy--><path d="M529.65,265.73 C502,309.35 465.18,367.46 440.47,406.44 " fill="none" id="Realm&lt;-RemoteRealmProxy" style="stroke: #A80036; stroke-width: 1.0;"/><polygon fill="none" points="523.88,261.75,540.5,248.61,535.71,269.25,523.88,261.75" style="stroke: #A80036; stroke-width: 1.0;"/><!--MD5=[6e3edf8ebe2ba21bf3093d96a1212572]
link Perspective to Event--><path d="M980.9652,537.8813 C980.9652,537.8813 1140.81,619.32 1200.63,649.8 " fill="none" id="Perspective-Event" style="stroke: #A80036; stroke-width: 1.0;"/><polygon fill="#A80036" points="1212.26,655.73,1206.0552,648.0814,1207.8045,653.461,1202.4249,655.2103,1212.26,655.73" style="stroke: #A80036; stroke-width: 1.0;"/><line style="stroke: #A80036; stroke-width: 1.0;" x1="1207.8045" x2="1200.675" y1="653.461" y2="649.825"/><polygon fill="#A80036" points="970.28,532.42,973.8022,538.7124,980.9652,537.8813,977.4431,531.5889,970.28,532.42" style="stroke: #A80036; stroke-width: 1.0;"/><text fill="#000000" font-family="sans-serif" font-size="13" lengthAdjust="spacingAndGlyphs" textLength="8" x="978.2131" y="533.6169">1</text><text fill="#000000" font-family="sans-serif" font-size="13" lengthAdjust="spacingAndGlyphs" textLength="6" x="1198.4681" y="648.5901">*</text><!--MD5=[c44b917890109172ddd3b1a72eb6ce84]
reverse link Perspective to MirrorPerspective--><path d="M679.61,585.54 C652.02,613.9 625.52,641.14 606.43,660.76 " fill="none" id="Perspective&lt;-MirrorPerspective" style="stroke: #A80036; stroke-width: 1.0;"/><polygon fill="none" points="674.7,580.55,693.66,571.1,684.73,590.32,674.7,580.55" style="stroke: #A80036; stroke-width: 1.0;"/><!--MD5=[54c87e420fb40e96dd8f45e354a417da]
reverse link RemoteRealmProxy to MirrorPerspective--><path d="M445.58,497.84 C478.66,546.15 529.24,620.02 557.18,660.82 " fill="none" id="RemoteRealmProxy&lt;-MirrorPerspective" style="stroke: #A80036; stroke-width: 1.0;"/><polygon fill="#A80036" points="442.63,493.54,444.4169,503.2254,445.456,497.6648,451.0166,498.7038,442.63,493.54" style="stroke: #A80036; stroke-width: 1.0;"/><!--MD5=[df1b533228b6335636fb8d24f2b73029]
link Event to Statement--><path d="M1337.1405,743.1142 C1337.1405,743.1142 1373.74,775.79 1391.3,791.48 " fill="none" id="Event-Statement" style="stroke: #A80036; stroke-width: 1.0;"/><polygon fill="#A80036" points="1401.48,800.57,1397.4288,791.5929,1397.7496,797.2407,1392.1019,797.5615,1401.48,800.57" style="stroke: #A80036; stroke-width: 1.0;"/><line style="stroke: #A80036; stroke-width: 1.0;" x1="1397.7496" x2="1391.79" y1="797.2407" y2="791.905"/><polygon fill="#FFFFFF" points="1328.2,735.11,1330.0022,742.0923,1337.1405,743.1142,1335.3383,736.132,1328.2,735.11" style="stroke: #A80036; stroke-width: 1.0;"/><text fill="#000000" font-family="sans-serif" font-size="13" lengthAdjust="spacingAndGlyphs" textLength="8" x="1326.8916" y="755.5387">1</text><text fill="#000000" font-family="sans-serif" font-size="13" lengthAdjust="spacingAndGlyphs" textLength="22" x="1371.6152" y="791.2977">1..*</text><!--MD5=[b06be49e4570e0302db41f1db16e2985]
link CompositeEvent to Event--><path d="M1423.13,474.32 C1403.29,498.73 1377.86,538.03 1354.5,571 C1340.34,590.97 1324.33,612.37 1310.57,631.46 " fill="none" id="CompositeEvent-&gt;Event" style="stroke: #A80036; stroke-width: 1.0;"/><polygon fill="none" points="1316.2,635.62,1298.92,647.89,1304.78,627.52,1316.2,635.62" style="stroke: #A80036; stroke-width: 1.0;"/><!--MD5=[b06be49e4570e0302db41f1db16e2985]
link CompositeEvent to Event--><path d="M1443.9727,485.0924 C1443.9727,485.0924 1409.4,542.93 1389.5,571 C1373.76,593.21 1355.73,617.17 1338.68,637.76 " fill="none" id="CompositeEvent-Event" style="stroke: #A80036; stroke-width: 1.0;"/><polygon fill="#A80036" points="1330.13,647.89,1338.9931,643.5953,1333.3563,644.0702,1332.8814,638.4333,1330.13,647.89" style="stroke: #A80036; stroke-width: 1.0;"/><line style="stroke: #A80036; stroke-width: 1.0;" x1="1333.3563" x2="1338.515" y1="644.0702" y2="637.955"/><polygon fill="#A80036" points="1449.26,474.32,1443.0256,477.9438,1443.9727,485.0924,1450.2071,481.4686,1449.26,474.32" style="stroke: #A80036; stroke-width: 1.0;"/><text fill="#000000" font-family="sans-serif" font-size="13" lengthAdjust="spacingAndGlyphs" textLength="6" x="1331.5617" y="637.3482">*</text><!--MD5=[78ec764a4244e2045f8a46864b3428bf]
reverse link Event to SnapshotEvent--><path d="M1252.86,753.53 C1240.98,779.77 1227.82,808.84 1218.94,828.45 " fill="none" id="Event&lt;-SnapshotEvent" style="stroke: #A80036; stroke-width: 1.0;"/><polygon fill="none" points="1246.58,750.44,1261.21,735.11,1259.33,756.22,1246.58,750.44" style="stroke: #A80036; stroke-width: 1.0;"/><!--MD5=[bfffc8baf1cec661b8eec83dfae07cc4]
link TopicSnapshot to SnapshotEvent--><path d="M1148.54,746.73 C1161.88,770.04 1189.3507,818.0343 1189.3507,818.0343 " fill="none" id="TopicSnapshot-SnapshotEvent" style="stroke: #A80036; stroke-width: 1.0;"/><polygon fill="#FFFFFF" points="1195.31,828.45,1195.8022,821.2557,1189.3507,818.0343,1188.8584,825.2286,1195.31,828.45" style="stroke: #A80036; stroke-width: 1.0;"/><polygon fill="#A80036" points="1141.89,735.11,1142.8876,744.9082,1144.3731,739.4499,1149.8314,740.9353,1141.89,735.11" style="stroke: #A80036; stroke-width: 1.0;"/><line style="stroke: #A80036; stroke-width: 1.0;" x1="1144.3731" x2="1148.34" y1="739.4499" y2="746.39"/><!--MD5=[a6bcf3279460b2cc5b4ec72bff0ee2ce]
link Statement to TopicRef--><path d="M1515.76,811.84 C1549.84,783.17 1586.5,741.05 1586.5,692.5 C1586.5,204 1586.5,204 1586.5,204 C1586.5,104.22 813.98,57.66 614.2,47.28 " fill="none" id="Statement-&gt;TopicRef" style="stroke: #A80036; stroke-width: 1.0;"/><polygon fill="#A80036" points="609.03,47.02,617.812,51.4783,614.0234,47.2775,618.2241,43.4889,609.03,47.02" style="stroke: #A80036; stroke-width: 1.0;"/><text fill="#000000" font-family="sans-serif" font-size="13" lengthAdjust="spacingAndGlyphs" textLength="46" x="1587.5" y="455.0684">subject</text><text fill="#000000" font-family="sans-serif" font-size="13" lengthAdjust="spacingAndGlyphs" textLength="6" x="1523.4808" y="803.2721">*</text><text fill="#000000" font-family="sans-serif" font-size="13" lengthAdjust="spacingAndGlyphs" textLength="8" x="617.14" y="43.826">1</text><!--MD5=[bdb5c1b19ab1eaff06a88b2417df34c8]
link Statement to PropertyValue--><path d="M1390.0173,878.8572 C1390.0173,878.8572 1318.76,901.74 1283.5,909 C949.53,977.77 540.86,998.31 378.69,1003.99 " fill="none" id="Statement-PropertyValue" style="stroke: #A80036; stroke-width: 1.0;"/><polygon fill="#A80036" points="365.61,1004.43,374.741,1008.1213,370.6071,1004.2598,374.4686,1000.1259,365.61,1004.43" style="stroke: #A80036; stroke-width: 1.0;"/><line style="stroke: #A80036; stroke-width: 1.0;" x1="370.6071" x2="378.605" y1="1004.2598" y2="1003.99"/><polygon fill="#A80036" points="1401.36,874.94,1394.3829,873.1177,1390.0173,878.8572,1396.9944,880.6795,1401.36,874.94" style="stroke: #A80036; stroke-width: 1.0;"/><text fill="#000000" font-family="sans-serif" font-size="13" lengthAdjust="spacingAndGlyphs" textLength="8" x="1385.5264" y="874.4568">1</text><text fill="#000000" font-family="sans-serif" font-size="13" lengthAdjust="spacingAndGlyphs" textLength="6" x="373.4397" y="1000.7338">*</text><!--MD5=[04f8dd811b7ca6241da55ecc1f754df5]
link PropertyValue to TopicRef--><path d="M249.47,976.2 C207.63,950.12 158.5,907.91 158.5,853.5 C158.5,204 158.5,204 158.5,204 C158.5,127.04 413.26,72.52 520.65,52.96 " fill="none" id="PropertyValue-&gt;TopicRef" style="stroke: #A80036; stroke-width: 1.0;"/><polygon fill="#A80036" points="525.65,52.05,516.0832,49.7098,520.7293,52.9369,517.5022,57.5829,525.65,52.05" style="stroke: #A80036; stroke-width: 1.0;"/><text fill="#000000" font-family="sans-serif" font-size="13" lengthAdjust="spacingAndGlyphs" textLength="53" x="159.5" y="614.5684">property</text><text fill="#000000" font-family="sans-serif" font-size="13" lengthAdjust="spacingAndGlyphs" textLength="8" x="510.0561" y="49.7426">1</text><!--MD5=[305c32e9ce3911739ca2100716097dbf]
reverse link PropertyValue to PropertyValueCollection--><path d="M271.18,1060.77 C261.14,1075.37 250.37,1091.02 240.78,1104.96 " fill="none" id="PropertyValue&lt;-PropertyValueCollection" style="stroke: #A80036; stroke-width: 1.0;"/><polygon fill="none" points="265.42,1056.8,282.53,1044.29,276.96,1064.73,265.42,1056.8" style="stroke: #A80036; stroke-width: 1.0;"/><!--MD5=[fd39d9de2a1925f2660b305ad0f72b82]
reverse link PropertyValue to SinglePropertyValue--><path d="M344.02,1061.07 C359,1082.83 375.55,1106.89 387.39,1124.09 " fill="none" id="PropertyValue&lt;-SinglePropertyValue" style="stroke: #A80036; stroke-width: 1.0;"/><polygon fill="none" points="338.04,1064.73,332.47,1044.29,349.58,1056.8,338.04,1064.73" style="stroke: #A80036; stroke-width: 1.0;"/><!--MD5=[84c8c38d11b29003f1514e35303ef343]
link PropertyValueCollection to ValueTopic--><path d="M216.2624,1204.2846 C216.2624,1204.2846 218.41,1228.93 219.33,1239.59 " fill="none" id="PropertyValueCollection-ValueTopic" style="stroke: #A80036; stroke-width: 1.0;"/><polygon fill="#A80036" points="220.48,1252.75,223.6942,1243.4404,220.0516,1247.7684,215.7236,1244.1258,220.48,1252.75" style="stroke: #A80036; stroke-width: 1.0;"/><line style="stroke: #A80036; stroke-width: 1.0;" x1="220.0516" x2="219.355" y1="1247.7684" y2="1239.8"/><polygon fill="#A80036" points="215.22,1192.33,211.7563,1198.6548,216.2624,1204.2846,219.7261,1197.9599,215.22,1192.33" style="stroke: #A80036; stroke-width: 1.0;"/><text fill="#000000" font-family="sans-serif" font-size="13" lengthAdjust="spacingAndGlyphs" textLength="6" x="213.1936" y="1242.2222">*</text><!--MD5=[0f8ce46e72030b00f23978f376324006]
link SinglePropertyValue to ValueTopic--><path d="M370.3,1172.7 C342.87,1191.87 303.52,1219.38 272.31,1241.19 " fill="none" id="SinglePropertyValue-&gt;ValueTopic" style="stroke: #A80036; stroke-width: 1.0;"/><polygon fill="none" points="275.89,1247.23,255.49,1252.95,267.87,1235.75,275.89,1247.23" style="stroke: #A80036; stroke-width: 1.0;"/><!--MD5=[91a7eeba74a6c78ed7441147624a9e72]
reverse link ValueTopic to RefValueTopic--><path d="M175.85,1313.43 C152.85,1330.89 125.44,1351.72 103.57,1368.33 " fill="none" id="ValueTopic&lt;-RefValueTopic" style="stroke: #A80036; stroke-width: 1.0;"/><polygon fill="none" points="171.88,1307.66,192.04,1301.14,180.34,1318.81,171.88,1307.66" style="stroke: #A80036; stroke-width: 1.0;"/><!--MD5=[d2f44a6e25bb113c55f31d5d986e46b7]
reverse link ValueTopic to LiteralValueTopic--><path d="M222.5,1321.21 C222.5,1334.49 222.5,1348.95 222.5,1361.71 " fill="none" id="ValueTopic&lt;-LiteralValueTopic" style="stroke: #A80036; stroke-width: 1.0;"/><polygon fill="none" points="215.5,1321.14,222.5,1301.14,229.5,1321.14,215.5,1321.14" style="stroke: #A80036; stroke-width: 1.0;"/><!--MD5=[b6408b9197fb5d791528c42bc6a6edf2]
reverse link ValueTopic to VolatileRefTopic--><path d="M270.28,1313.18 C294.07,1330.69 322.52,1351.63 345.19,1368.33 " fill="none" id="ValueTopic&lt;-VolatileRefTopic" style="stroke: #A80036; stroke-width: 1.0;"/><polygon fill="none" points="265.88,1318.63,253.93,1301.14,274.18,1307.36,265.88,1318.63" style="stroke: #A80036; stroke-width: 1.0;"/><!--MD5=[55d9b934ed68928ba12e8d3a582007ca]
link RefValueTopic to TopicRef--><path d="M64.5,1368.41 C64.5,1344.12 64.5,1308.83 64.5,1278 C64.5,204 64.5,204 64.5,204 C64.5,108.81 396.14,63.37 520.84,49.65 " fill="none" id="RefValueTopic-&gt;TopicRef" style="stroke: #A80036; stroke-width: 1.0;"/><polygon fill="#A80036" points="525.91,49.1,516.529,46.1006,520.9395,49.6428,517.3974,54.0533,525.91,49.1" style="stroke: #A80036; stroke-width: 1.0;"/><text fill="#000000" font-family="sans-serif" font-size="13" lengthAdjust="spacingAndGlyphs" textLength="39" x="65.5" y="857.5684">object</text><text fill="#000000" font-family="sans-serif" font-size="13" lengthAdjust="spacingAndGlyphs" textLength="8" x="510.0742" y="63.8684">1</text><!--MD5=[f038afdc83a5a5f9b230244b2f09ad73]
link CompositeStatement to Statement--><path d="M1449.19,715.62 C1446.77,731.56 1445.62,753.74 1445.76,775.55 " fill="none" id="CompositeStatement-&gt;Statement" style="stroke: #A80036; stroke-width: 1.0;"/><polygon fill="none" points="1452.76,775.55,1446.27,795.72,1438.77,775.9,1452.76,775.55" style="stroke: #A80036; stroke-width: 1.0;"/><!--MD5=[f038afdc83a5a5f9b230244b2f09ad73]
link CompositeStatement to Statement--><path d="M1469.8776,727.5236 C1469.8776,727.5236 1472.27,764.12 1471.89,782.71 " fill="none" id="CompositeStatement-Statement" style="stroke: #A80036; stroke-width: 1.0;"/><polygon fill="#A80036" points="1471.45,795.72,1475.7541,786.8614,1471.6202,790.7229,1467.7587,786.589,1471.45,795.72" style="stroke: #A80036; stroke-width: 1.0;"/><line style="stroke: #A80036; stroke-width: 1.0;" x1="1471.6202" x2="1471.89" y1="790.7229" y2="782.725"/><polygon fill="#A80036" points="1468.36,715.62,1465.1509,722.0777,1469.8776,727.5236,1473.0867,721.0659,1468.36,715.62" style="stroke: #A80036; stroke-width: 1.0;"/><text fill="#000000" font-family="sans-serif" font-size="13" lengthAdjust="spacingAndGlyphs" textLength="6" x="1466.7248" y="785.0868">*</text><!--MD5=[edf6a70a7ffbd8001eeb6b65f0f24e6b]
reverse link TopicRef to SituatedTopicRef--><path d="M629.22,47.13 C730.78,52.6 937.71,72.16 1096.5,142 C1114.47,149.9 1132.14,162.46 1146.44,174.22 " fill="none" id="TopicRef&lt;-SituatedTopicRef" style="stroke: #A80036; stroke-width: 1.0;"/><polygon fill="none" points="628.84,54.12,609.2,46.16,629.52,40.13,628.84,54.12" style="stroke: #A80036; stroke-width: 1.0;"/><!--MD5=[6181314892513f7c0945a04be677ef59]
link SituatedTopicRef to Perspective--><path d="M1140.61,235.69 C1126.89,246.15 1111.17,257.84 1096.5,268 C1057.58,294.96 1014.84,322.87 974.52,348.47 " fill="none" id="SituatedTopicRef-&gt;Perspective" style="stroke: #A80036; stroke-width: 1.0;"/><polygon fill="#A80036" points="970.13,351.26,979.8695,349.7964,974.3465,348.5728,975.5701,343.0499,970.13,351.26" style="stroke: #A80036; stroke-width: 1.0;"/><!--MD5=[8b0faa55087848f9ef820d7aefa2b978]
reverse link SituatedTopicRef to FrozenTopicRef--><path d="M1201.12,254.21 C1224.2,303.41 1259.3,378.22 1278.59,419.34 " fill="none" id="SituatedTopicRef&lt;-FrozenTopicRef" style="stroke: #A80036; stroke-width: 1.0;"/><polygon fill="none" points="1194.64,256.88,1192.48,235.8,1207.31,250.93,1194.64,256.88" style="stroke: #A80036; stroke-width: 1.0;"/><!--MD5=[41967fd75d78ac03edca11c7c7c0aa69]
link FrozenTopicRef to Event--><path d="M1291,480.85 C1288.97,521.38 1285.32,594.29 1282.9,642.54 " fill="none" id="FrozenTopicRef-&gt;Event" style="stroke: #A80036; stroke-width: 1.0;"/><polygon fill="#A80036" points="1282.64,647.72,1287.0731,638.9253,1282.8833,642.7259,1279.0826,638.536,1282.64,647.72" style="stroke: #A80036; stroke-width: 1.0;"/><!--MD5=[3886a19514acf44b2148a9f6d50a8063]
reverse link AbstractTopicCache to TopicSnapshot--><path d="M1000.45,288.39 C1010.1,363.42 1028.41,476.56 1059.5,571 C1068.23,597.5 1081.66,625.65 1093.4,647.97 " fill="none" id="AbstractTopicCache&lt;-TopicSnapshot" style="stroke: #A80036; stroke-width: 1.0;"/><polygon fill="none" points="993.48,289,997.96,268.29,1007.37,287.28,993.48,289" style="stroke: #A80036; stroke-width: 1.0;"/><!--MD5=[05db2918c82251c719b96f28f3ea3f4e]
reverse link FrozenTopicRef to TopicSnapshot--><path d="M1271.66,485.12 C1256.46,509.49 1235.01,542.82 1214.5,571 C1195.4,597.25 1172.58,625.5 1153.87,647.94 " fill="none" id="FrozenTopicRef&lt;-TopicSnapshot" style="stroke: #A80036; stroke-width: 1.0;"/><polygon fill="#A80036" points="1274.43,480.68,1266.2764,486.2043,1271.7864,484.924,1273.0668,490.4341,1274.43,480.68" style="stroke: #A80036; stroke-width: 1.0;"/><!--MD5=[17a5974f2ae1b7c5e4e8270e464b8c77]
reverse link AbstractTopicCache to TopicCache--><path d="M1039.11,285.63 C1041.61,289.81 1044.09,293.96 1046.5,298 C1069.96,337.31 1096.83,382.39 1115.06,412.99 " fill="none" id="AbstractTopicCache&lt;-TopicCache" style="stroke: #A80036; stroke-width: 1.0;"/><polygon fill="none" points="1033.04,289.11,1028.79,268.35,1045.06,281.93,1033.04,289.11" style="stroke: #A80036; stroke-width: 1.0;"/><!--MD5=[2db5bc9564cf8a02b75c514bd7892fcb]
reverse link SituatedTopicRef to TopicCache--><path d="M1172.46,240.92 C1164.57,286.6 1150.8,366.24 1142.79,412.62 " fill="none" id="SituatedTopicRef&lt;-TopicCache" style="stroke: #A80036; stroke-width: 1.0;"/><polygon fill="#A80036" points="1173.35,235.8,1167.8901,243.9969,1172.5072,240.7285,1175.7757,245.3455,1173.35,235.8" style="stroke: #A80036; stroke-width: 1.0;"/><!--MD5=[5ef4ad72ed3c7ffe56390de4804a41a3]
@startuml
class TopicRef {
  gID realm_id
  rID topic_id
}
TopicRef - -> Realm

Realm "1" *- -> "*" Perspective
Realm <|- - RemoteRealmProxy

class Realm {
  SituatedTopicRef[] findGlobalName(gID)
  Perspective[] inPerspectives(TopicRef)
  Perspective[] perspectives
}

class RemoteRealmProxy {
  subscribeToTopics(rID perspective_id, rID[] topics)
  subscribeToSearch(rID perspective_id, search_description)
  MirrorPerspective mirror(rID perspective_id, rID[] topics, eID upToEvent?)
}

Perspective "1" *- -> "*" Event
class Perspective {
  Event[] eventQueue
  rID[] topics
  Map<perspective_id, eID> includedPerspectives
  SituatedTopicRef situate(TopicRef)
  FrozenTopicRef freeze(TopicRef, eID event)
  Statement[] statements(SituatedTopicRef)
  Statement[] refutedStatements(SituatedTopicRef)
  Statement[] activeStatements(SituatedTopicRef)
  TopicSnapshot makeSnapshot(FrozenTopicRef)
  TopicSnapshot latestSnapshot(FrozenTopicRef)
  TopicSnapshot makeCache(TopicRef)
  SituatedTopicRef[] findGlobalName(gID)
  eID lastEventId
  TopicRef[] neighbourhood(SituatedTopicRef, SearchSpec)
  Map<gId, rID[]> aliases
}

Perspective <|- - MirrorPerspective
RemoteRealmProxy <- - MirrorPerspective
MirrorPerspective : update(eID upToEvent)

Event "1" o- -> "1..*" Statement
CompositeEvent - -|> Event
CompositeEvent *- -> "*" Event

Event <|- - SnapshotEvent
TopicSnapshot <- -o SnapshotEvent

class Event {
  eId id
  bool endOfTransaction
  bool success
}

class Statement {
  Statement[] refutes  
  TopicRef creator  
  TopicRef author  
  certainty float  
  TopicRef subject  
}
Statement "*" - -> "1" TopicRef : subject
Statement "1" *- -> "*" PropertyValue

class PropertyValue {
  boolean exhaustive  
  TopicRef prop  
}

PropertyValue - -> "1" TopicRef : property

class PropertyValueCollection {
  QuerySpec intension
  ValueTopic[] extension
  boolean ordered
}

PropertyValue <|- - PropertyValueCollection

class SinglePropertyValue {
}

PropertyValue <|- - SinglePropertyValue

PropertyValueCollection *- -> "*" ValueTopic
SinglePropertyValue - -|> ValueTopic
class ValueTopic {
}

class RefValueTopic {
  TopicRef target
}

ValueTopic <|- - RefValueTopic

class LiteralValueTopic {
  JSON value
  boolean mutable
}

ValueTopic <|- - LiteralValueTopic

class VolatileRefTopic {
  URL value
}
ValueTopic <|- - VolatileRefTopic

RefValueTopic - -> "1" TopicRef : object

class CompositeStatement {
  
}
CompositeStatement - -|> Statement
CompositeStatement *- -> "*" Statement

TopicRef <|- - SituatedTopicRef
SituatedTopicRef : rID perspective_id
SituatedTopicRef - -> Perspective
SituatedTopicRef <|- - FrozenTopicRef

FrozenTopicRef : eID event_id
FrozenTopicRef - -> Event

abstract class AbstractTopicCache {
  Statement[] statements
  Statement[] refutedStatements
  Statement[] activeStatements()
  SituatedTopicRef mergeHead()
  gID[] aliases
  SituatedTopicRef[] sources
}

AbstractTopicCache <|- - TopicSnapshot
FrozenTopicRef <- - TopicSnapshot
class TopicSnapshot {
  FrozenTopicRef ref
  JSON representation
  id hash
}

AbstractTopicCache <|- - TopicCache
SituatedTopicRef <- - TopicCache
class TopicCache {
  SituatedTopicRef ref
  update()
}

@enduml

PlantUML version 1.2020.13(Sat Jun 13 08:26:38 EDT 2020)
(GPL source distribution)
Java Runtime: OpenJDK Runtime Environment
JVM: OpenJDK 64-Bit Server VM
Default Encoding: UTF-8
Language: fr
Country: CA
--></g></svg>